0.000000000000000000e+00 3.524173626799195880e+00
7.898542553820449008e-01 3.521262129528594187e+00
1.579708510764089802e+00 3.518614957950973565e+00
2.369562766146135147e+00 3.516246206048982526e+00
3.159417021528179603e+00 3.514184849759145912e+00
3.949271276910224504e+00 3.512409193386226036e+00
4.739125532292270293e+00 3.510897432110070771e+00
5.528979787674313862e+00 3.509639821941108462e+00
6.318834043056359207e+00 3.508621710148108974e+00
7.108688298438404551e+00 3.507822524807753251e+00
7.898542553820449008e+00 3.507207275294148552e+00
8.688396809202496129e+00 3.506738402676971234e+00
9.478251064584540586e+00 3.506361114959179126e+00
1.026810531996658504e+01 3.506006161352476891e+00
1.105795957534862772e+01 3.505624025712461567e+00
1.184781383073067573e+01 3.505179281615742770e+00
1.263766808611271841e+01 3.504656754133655738e+00
1.342752234149476465e+01 3.504066839213667350e+00
1.421737659687680910e+01 3.503430191393658966e+00
1.500723085225885356e+01 3.502753014567352885e+00
1.579708510764089802e+01 3.502034827133270412e+00
1.658693936302294247e+01 3.501318269869830857e+00
1.737679361840499226e+01 3.500666794021165984e+00
1.816664787378703139e+01 3.500148504781174008e+00
1.895650212916908117e+01 3.499823924612715853e+00
1.974635638455112385e+01 3.499761227368269445e+00
2.053621063993317009e+01 3.500037993819370641e+00
2.132606489531521632e+01 3.500704598102523324e+00
2.211591915069725545e+01 3.501798349440052416e+00
2.290577340607930168e+01 3.503326364946915739e+00
2.369562766146135147e+01 3.505270513495468254e+00
2.448548191684339059e+01 3.507607664726423824e+00
2.527533617222543683e+01 3.510304270739951882e+00
2.606519042760748306e+01 3.513326057789242007e+00
2.685504468298952929e+01 3.516640215781225098e+00
2.764489893837157553e+01 3.520185522345554041e+00
2.843475319375361821e+01 3.523889012273419663e+00
2.922460744913566444e+01 3.527687139909882141e+00
3.001446170451770712e+01 3.531528689081084860e+00
3.080431595989974980e+01 3.535380626201240606e+00
3.159417021528179603e+01 3.539206219615359750e+00
3.238402447066384582e+01 3.542982932694486387e+00
3.317387872604588495e+01 3.546710086363349390e+00
3.396373298142793118e+01 3.550372421084106556e+00
3.475358723680998452e+01 3.553949271619857964e+00
3.554344149219202365e+01 3.557437166954295016e+00
3.633329574757406277e+01 3.560817357635105651e+00
3.712315000295611611e+01 3.564071355358624960e+00
3.791300425833816234e+01 3.567167361147283167e+00
3.870285851372020147e+01 3.570075436294984694e+00
3.949271276910224771e+01 3.572759129395751021e+00
4.028256702448429394e+01 3.575170440631672442e+00
4.107242127986634017e+01 3.577265233019344404e+00
4.186227553524837930e+01 3.579017664243250074e+00
4.265212979063043264e+01 3.580390675858097893e+00
4.344198404601247177e+01 3.581343695424604956e+00
4.423183830139451089e+01 3.581840307597116357e+00
4.502169255677656423e+01 3.581851510583416331e+00
4.581154681215860336e+01 3.581382827494189680e+00
4.660140106754064959e+01 3.580458664640178590e+00
4.739125532292270293e+01 3.579119536636198973e+00
4.818110957830474206e+01 3.577420414281286210e+00
4.897096383368678119e+01 3.575435588989742897e+00
4.976081808906882742e+01 3.573233927879551519e+00
5.055067234445087365e+01 3.570861362385400195e+00
5.134052659983291278e+01 3.568364827258449168e+00
5.213038085521496612e+01 3.565798635572510644e+00
5.292023511059701946e+01 3.563203713792832072e+00
5.371008936597905858e+01 3.560573298752026883e+00
5.449994362136109771e+01 3.557889941619138963e+00
5.528979787674315105e+01 3.555116288516349865e+00
5.607965213212519018e+01 3.552220511161128247e+00
5.686950638750723641e+01 3.549153018656642899e+00
5.765936064288928975e+01 3.545861675019384318e+00
5.844921489827132888e+01 3.542307469096588779e+00
5.923906915365336801e+01 3.538479955830207579e+00
6.002892340903541424e+01 3.534396382902972533e+00
6.081877766441746047e+01 3.530066663791872283e+00
6.160863191979949960e+01 3.525506400472227853e+00
6.239848617518155294e+01 3.520740551265705953e+00
6.318834043056359207e+01 3.515804409276169995e+00
6.397819468594563830e+01 3.510737135915436902e+00
6.476804894132769164e+01 3.505592640634468182e+00
6.555790319670973076e+01 3.500445169243817212e+00
6.634775745209176989e+01 3.495376210186318389e+00
6.713761170747382323e+01 3.490488807979487351e+00
6.792746596285586236e+01 3.485888230498391138e+00
6.871732021823791570e+01 3.481667043300805453e+00
6.950717447361996904e+01 3.477906043638847589e+00
7.029702872900199395e+01 3.474665517440851836e+00
7.108688298438404729e+01 3.471993677713684612e+00
7.187673723976610063e+01 3.469915588064756307e+00
7.266659149514812555e+01 3.468431688001891722e+00
7.345644575053017888e+01 3.467528693684616581e+00
7.424630000591223222e+01 3.467186896221867709e+00
7.503615426129427135e+01 3.467386658194441473e+00
7.582600851667632469e+01 3.468116568164596014e+00
7.661586277205834961e+01 3.469354298151411164e+00
7.740571702744040294e+01 3.471085955087618746e+00
7.819557128282244207e+01 3.473311873853203835e+00
7.898542553820449541e+01 3.476042020328053983e+00
7.977527979358653454e+01 3.479290843290951507e+00
8.056513404896858788e+01 3.483080361787433077e+00
8.135498830435062700e+01 3.487449454916441649e+00
8.214484255973268034e+01 3.492433860219735120e+00
8.293469681511473368e+01 3.498069473033219801e+00
8.372455107049675860e+01 3.504368001649609710e+00
8.451440532587881194e+01 3.511293791455195823e+00
8.530425958126086527e+01 3.518772305691556301e+00
8.609411383664289019e+01 3.526720392871055765e+00
8.688396809202494353e+01 3.535062118348386573e+00
8.767382234740699687e+01 3.543733885169004783e+00
8.846367660278902179e+01 3.552650572978930832e+00
8.925353085817107512e+01 3.561705812291164452e+00
9.004338511355312846e+01 3.570780373380491923e+00
9.083323936893515338e+01 3.579749892074746143e+00
9.162309362431720672e+01 3.588518217037528046e+00
9.241294787969926006e+01 3.597034049271048861e+00
9.320280213508129918e+01 3.605236281012306421e+00
9.399265639046335252e+01 3.613069815420496322e+00
9.478251064584540586e+01 3.620486797677042734e+00
9.557236490122744499e+01 3.627457466944934872e+00
9.636221915660948412e+01 3.633949814757541752e+00
9.715207341199152324e+01 3.639928358080616988e+00
9.794192766737356237e+01 3.645364883043423987e+00
9.873178192275561571e+01 3.650238244273832144e+00
9.952163617813765484e+01 3.654523130228419348e+00
1.003114904335197082e+02 3.658186371448080898e+00
1.011013446889017473e+02 3.661197402197104989e+00
1.018911989442837864e+02 3.663509245072170906e+00
1.026810531996658256e+02 3.665068542019217723e+00
1.034709074550478789e+02 3.665848991204006868e+00
1.042607617104299322e+02 3.665828312684982215e+00
1.050506159658119856e+02 3.664988805518424098e+00
1.058404702211940389e+02 3.663330585452734933e+00
1.066303244765760638e+02 3.660862714521795791e+00
1.074201787319581172e+02 3.657596577839725249e+00
1.082100329873401563e+02 3.653566923699151037e+00
1.089998872427221954e+02 3.648844313878541801e+00
1.097897414981042488e+02 3.643519123477712007e+00
1.105795957534863021e+02 3.637695606231600376e+00
1.113694500088683270e+02 3.631477501932931062e+00
1.121593042642503804e+02 3.624959339620211107e+00
1.129491585196324195e+02 3.618219883904393530e+00
1.137390127750144728e+02 3.611343028107470321e+00
1.145288670303965262e+02 3.604442964569805063e+00
1.153187212857785795e+02 3.597634517850945013e+00
1.161085755411606044e+02 3.591001329273631804e+00
1.168984297965426578e+02 3.584625617268865305e+00
1.176882840519246827e+02 3.578568661721937882e+00
1.184781383073067360e+02 3.572869716629742953e+00
1.192679925626887893e+02 3.567547644534487361e+00
1.200578468180708285e+02 3.562598511475741248e+00
1.208477010734528676e+02 3.558029794652157740e+00
1.216375553288349209e+02 3.553870943085614797e+00
1.224274095842169459e+02 3.550131708696631527e+00
1.232172638395989992e+02 3.546811517699796745e+00
1.240071180949810525e+02 3.543950202003735228e+00
1.247969723503631059e+02 3.541600165004874068e+00
1.255868266057451592e+02 3.539837260954577847e+00
1.263766808611271841e+02 3.538726146649279869e+00
1.271665351165092517e+02 3.538331767208297673e+00
1.279563893718912766e+02 3.538735142074602713e+00
1.287462436272733157e+02 3.540016705745699266e+00
1.295360978826553833e+02 3.542239528887650923e+00
1.303259521380374224e+02 3.545439019734476283e+00
1.311158063934194615e+02 3.549601993481470874e+00
1.319056606488015291e+02 3.554678371069713627e+00
1.326955149041835398e+02 3.560590363963812788e+00
1.334853691595655789e+02 3.567220343194605903e+00
1.342752234149476465e+02 3.574427965758347980e+00
1.350650776703296856e+02 3.582066100429351696e+00
1.358549319257117247e+02 3.590013315358131063e+00
1.366447861810937638e+02 3.598175521569132673e+00
1.374346404364758314e+02 3.606475532846526999e+00
1.382244946918578705e+02 3.614842953474442844e+00
1.390143489472399381e+02 3.623229075594427862e+00
1.398042032026219488e+02 3.631616960667650940e+00
1.405940574580039879e+02 3.640017203270788038e+00
1.413839117133860555e+02 3.648448760768046473e+00
1.421737659687680946e+02 3.656926162815623105e+00
1.429636202241501337e+02 3.665421470076182242e+00
1.437534744795322013e+02 3.673908270887555894e+00
1.445433287349142120e+02 3.682371304291780501e+00
1.453331829902962511e+02 3.690791244188893927e+00
1.461230372456783186e+02 3.699134265507137087e+00
1.469128915010603578e+02 3.707355396259541802e+00
1.477027457564423969e+02 3.715416822075732206e+00
1.484926000118244644e+02 3.723302341965789353e+00
1.492824542672065036e+02 3.730987198888349621e+00
1.500723085225885427e+02 3.738447285791531183e+00
1.508621627779705818e+02 3.745673655376668076e+00
1.516520170333526494e+02 3.752663392838912593e+00
1.524418712887346601e+02 3.759433946159410844e+00
1.532317255441166992e+02 3.765971002179767435e+00
1.540215797994987668e+02 3.772264488511805069e+00
1.548114340548808059e+02 3.778319752730237902e+00
1.556012883102628450e+02 3.784148193850617403e+00
1.563911425656448841e+02 3.789778907303635425e+00
1.571809968210269517e+02 3.795239785263401888e+00
1.579708510764089908e+02 3.800586847537328783e+00
1.587607053317910584e+02 3.805884982718078291e+00
1.595505595871730691e+02 3.811198663952168442e+00
1.603404138425551082e+02 3.816596518892561019e+00
1.611302680979371758e+02 3.822129218660990535e+00
1.619201223533191865e+02 3.827853463923840405e+00
1.627099766087012540e+02 3.833807106223889871e+00
1.634998308640832931e+02 3.840003496722543375e+00
1.642896851194653607e+02 3.846438691228473150e+00
1.650795393748473998e+02 3.853083886448905648e+00
1.658693936302294674e+02 3.859895984342823549e+00
1.666592478856114781e+02 3.866820741724775079e+00
1.674491021409935172e+02 3.873790326504514159e+00
1.682389563963755847e+02 3.880723232265088640e+00
1.690288106517576239e+02 3.887565589384450071e+00
1.698186649071396630e+02 3.894279725381529556e+00
1.706085191625217305e+02 3.900852658616573265e+00
1.713983734179037697e+02 3.907271571579758795e+00
1.721882276732857804e+02 3.913532398384615973e+00
1.729780819286678479e+02 3.919651096527438927e+00
1.737679361840498871e+02 3.925643304445053605e+00
1.745577904394319262e+02 3.931507333262126203e+00
1.753476446948139937e+02 3.937236493401857107e+00
1.761374989501960044e+02 3.942835929056987432e+00
1.769273532055780436e+02 3.948333793196487917e+00
1.777172074609601111e+02 3.953760036489863960e+00
1.785070617163421502e+02 3.959131336635631104e+00
1.792969159717241894e+02 3.964461740515366373e+00
1.800867702271062569e+02 3.969762201586642281e+00
1.808766244824882961e+02 3.975038307179776353e+00
1.816664787378703068e+02 3.980260799927815896e+00
1.824563329932523743e+02 3.985385091231716359e+00
1.832461872486344134e+02 3.990336222396354771e+00
1.840360415040164810e+02 3.995042233777675200e+00
1.848258957593985201e+02 3.999445469172834500e+00
1.856157500147805877e+02 4.003510869487999280e+00
1.864056042701625984e+02 4.007248788064516454e+00
1.871954585255446659e+02 4.010706804014466442e+00
1.879853127809267050e+02 4.013971890100638262e+00
1.887751670363087442e+02 4.017157278913116691e+00
1.895650212916908117e+02 4.020409942867173569e+00
1.903548755470728508e+02 4.023903099505016456e+00
1.911447298024548900e+02 4.027786967805910834e+00
1.919345840578369007e+02 4.032132988138053875e+00
1.927244383132189682e+02 4.036910646435909023e+00
1.935142925686010074e+02 4.041998125851263168e+00
1.943041468239830465e+02 4.047199337874960889e+00
1.950940010793651140e+02 4.052303500369315969e+00
1.958838553347471247e+02 4.057124826206272239e+00
1.966737095901291639e+02 4.061479339966204805e+00
1.974635638455112314e+02 4.065210948523990453e+00
1.982534181008932705e+02 4.068158806574634134e+00
1.990432723562753097e+02 4.070125332965425002e+00
1.998331266116573772e+02 4.070893835612071854e+00
2.006229808670394164e+02 4.070247332519905115e+00
2.014128351224214271e+02 4.067963604840644898e+00
2.022026893778034946e+02 4.063833245399690597e+00
2.029925436331855337e+02 4.057686383201744462e+00
2.037823978885675729e+02 4.049418876178633830e+00
2.045722521439496404e+02 4.039023031059741697e+00
2.053621063993316511e+02 4.026624006041712001e+00
2.061519606547137187e+02 4.012443150975109063e+00
2.069418149100957578e+02 3.996759768712557115e+00
2.077316691654778253e+02 3.979873847093787997e+00
2.085215234208598645e+02 3.962046535583327866e+00
2.093113776762419320e+02 3.943508269751684114e+00
2.101012319316239711e+02 3.924452056036640268e+00
2.108910861870060103e+02 3.905025110264997323e+00
2.116809404423880778e+02 3.885332161354522640e+00
2.124707946977700885e+02 3.865450600425953898e+00
2.132606489531521277e+02 3.845456228251307618e+00
2.140505032085341952e+02 3.825408018690945600e+00
2.148403574639162343e+02 3.805353558871061193e+00
2.156302117192982450e+02 3.785345664286824174e+00
2.164200659746803126e+02 3.765444493191206554e+00
2.172099202300623517e+02 3.745752110300507809e+00
2.179997744854443908e+02 3.726420369629124263e+00
2.187896287408264584e+02 3.707602612431598832e+00
2.195794829962084975e+02 3.689430551437214323e+00
2.203693372515905367e+02 3.672015812092683795e+00
2.211591915069726042e+02 3.655433977391840283e+00
2.219490457623546149e+02 3.639695156758663952e+00
2.227389000177366540e+02 3.624768938220642056e+00
2.235287542731187216e+02 3.610607682363819126e+00
2.243186085285007607e+02 3.597148373322988757e+00
2.251084627838827714e+02 3.584356833948178611e+00
2.258983170392648390e+02 3.572213271172136384e+00
2.266881712946468781e+02 3.560696640968449955e+00
2.274780255500289456e+02 3.549792659704323228e+00
2.282678798054109848e+02 3.539516199955547560e+00
2.290577340607930523e+02 3.529890465094654317e+00
2.298475883161750914e+02 3.520945165528637233e+00
2.306374425715571590e+02 3.512692643043550333e+00
2.314272968269391981e+02 3.505161601234095148e+00
2.322171510823212088e+02 3.498380341019492246e+00
2.330070053377032764e+02 3.492398333720225789e+00
2.337968595930853155e+02 3.487236057629446773e+00
2.345867138484673546e+02 3.482862110448174509e+00
2.353765681038493653e+02 3.479185223687498052e+00
2.361664223592314329e+02 3.476116068009719395e+00
2.369562766146134720e+02 3.473585547122690187e+00
2.377461308699955111e+02 3.471578543223716284e+00
2.385359851253775787e+02 3.470147845338331649e+00
2.393258393807596178e+02 3.469378731172838570e+00
2.401156936361416570e+02 3.469368173240003905e+00
2.409055478915237245e+02 3.470247979746902356e+00
2.416954021469057352e+02 3.472165630399890013e+00
2.424852564021910268e+02 3.475264041366532108e+00
2.432751106577665894e+02 3.479660537694053257e+00
2.440649649131002548e+02 3.485420515611715508e+00
2.448548191684338917e+02 3.492553185431682028e+00
2.456446734237676139e+02 3.501031911544674635e+00
2.464345276791012793e+02 3.510768395292280353e+00
2.472243819346768134e+02 3.521617477657964734e+00
2.480142361900104788e+02 3.533399257079763878e+00
2.488040904453441726e+02 3.545929167335240884e+00
2.495939447006778096e+02 3.559035450673524892e+00
2.503837989560115034e+02 3.572580337009134244e+00
2.511736532115870375e+02 3.586485159904086117e+00
2.519635074669207313e+02 3.600712604865170086e+00
2.527533617222543683e+02 3.615275878929046449e+00
2.535432159775880336e+02 3.630223377258270379e+00
2.543330702329216990e+02 3.645636609101599923e+00
2.551229244884972900e+02 3.661596426523089587e+00
2.559127787438309554e+02 3.678141424292293848e+00
2.567026329991646207e+02 3.695270237804262781e+00
2.574924872544982577e+02 3.712957815857463650e+00
2.582823415098318947e+02 3.731167651696497334e+00
2.590721957654075140e+02 3.749825005815651924e+00
2.598620500207411510e+02 3.768829580838629401e+00
2.606519042760748448e+02 3.788045192471305445e+00
2.614417585314084818e+02 3.807278628774541041e+00
2.622316127867421756e+02 3.826320885993011345e+00
2.630214670423177381e+02 3.844965741818606286e+00
2.638113212976513751e+02 3.863028808866185493e+00
2.646011755529850689e+02 3.880346395915276414e+00
2.653910298083187058e+02 3.896760211236314220e+00
2.661808840636523996e+02 3.912172693591253303e+00
2.669707383192279622e+02 3.926540738446648859e+00
2.677605925745615991e+02 3.939819557980976938e+00
2.685504468298952929e+02 3.951953733756431664e+00
2.693403010852289299e+02 3.962869971061917074e+00
2.701301553405626237e+02 3.972486319876980865e+00
2.709200095961381862e+02 3.980699763609460540e+00
2.717098638514718232e+02 3.987431238945419842e+00
2.724997181068055170e+02 3.992630903844979873e+00
2.732895723621391539e+02 3.996279116824712929e+00
2.740794266174728477e+02 3.998410744062245836e+00
2.748692808730484103e+02 3.999126672521964299e+00
2.756591351283821041e+02 3.998580474600759604e+00
2.764489893837157410e+02 3.996944922106207887e+00
2.772388436390493780e+02 3.994388355864861850e+00
2.780286978943830718e+02 3.991029622991029147e+00
2.788185521499586343e+02 3.986972462587663912e+00
2.796084064052923281e+02 3.982301921108296394e+00
2.803982606606259651e+02 3.977106031373768502e+00
2.811881149159596589e+02 3.971494699683154384e+00
2.819779691712932959e+02 3.965585717287967604e+00
2.827678234268688584e+02 3.959518795661689960e+00
2.835576776822024954e+02 3.953433691418558826e+00
2.843475319375361892e+02 3.947471616218700685e+00
2.851373861928698261e+02 3.941748804241362869e+00
2.859272404482035199e+02 3.936395893396771317e+00
2.867170947037790825e+02 3.931568892370478352e+00
2.875069489591127194e+02 3.927417113500961676e+00
2.882968032144464132e+02 3.924064514368966528e+00
2.890866574697800502e+02 3.921591899582935969e+00
2.898765117251137440e+02 3.920007157253394325e+00
2.906663659806893065e+02 3.919256982174703197e+00
2.914562202360229435e+02 3.919265004492738402e+00
2.922460744913566373e+02 3.919964490589641137e+00
2.930359287466902742e+02 3.921309450984415079e+00
2.938257830020239680e+02 3.923261309907775995e+00
2.946156372575995306e+02 3.925755562680307786e+00
2.954054915129331675e+02 3.928719486629921320e+00
2.961953457682668613e+02 3.932096875537395064e+00
2.969852000236004983e+02 3.935865314462912767e+00
2.977750542789341353e+02 3.939987611952978419e+00
2.985649085345097546e+02 3.944374615812309859e+00
2.993547627898434484e+02 3.948908849384187736e+00
3.001446170451770854e+02 3.953475697828174429e+00
3.009344713005107224e+02 3.957958125472069710e+00
3.017243255558444162e+02 3.962270509289755882e+00
3.025141798114199787e+02 3.966381158386975692e+00
3.033040340667536157e+02 3.970296009594533437e+00
3.040938883220873095e+02 3.974053381768317017e+00
3.048837425774210033e+02 3.977711956378517932e+00
3.056735968327546402e+02 3.981336117422987098e+00
3.064634510883302028e+02 3.984949993516073263e+00
3.072533053436638397e+02 3.988518935670003707e+00
3.080431595989975335e+02 3.991978443994669057e+00
3.088330138543311705e+02 3.995247468520810585e+00
3.096228681096648643e+02 3.998251172868011238e+00
3.104127223652404268e+02 4.000933800768305737e+00
3.112025766205740638e+02 4.003234234846216211e+00
3.119924308759077576e+02 4.005078081478296248e+00
3.127822851312413945e+02 4.006348252921540620e+00
3.135721393865750883e+02 4.006906832129266682e+00
3.143619936421506509e+02 4.006664548843931861e+00
3.151518478974843447e+02 4.005619793621121971e+00
3.159417021528179816e+02 4.003818306671933946e+00
3.167315564081516186e+02 4.001318617078906570e+00
3.175214106634853124e+02 3.998149474217686627e+00
3.183112649190608749e+02 3.994309086174618884e+00
3.191011191743945687e+02 3.989751748083695038e+00
3.198909734297282057e+02 3.984425227172669004e+00
3.206808276850618995e+02 3.978307139801595671e+00
3.214706819403955365e+02 3.971421206351975375e+00
3.222605361959710990e+02 3.963833918249955790e+00
3.230503904513047928e+02 3.955608217716354957e+00
3.238402447066383729e+02 3.946810717651035194e+00
3.246300989619721236e+02 3.937511984560904565e+00
3.254199532173057605e+02 3.927776181437283576e+00
3.262098074728812662e+02 3.917653646114125365e+00
3.269996617282149600e+02 3.907189517394102474e+00
3.277895159835486538e+02 3.896433954415216672e+00
3.285793702388822339e+02 3.885441481287025045e+00
3.293692244942160414e+02 3.874247103812818782e+00
3.301590787497915471e+02 3.862869801275431669e+00
3.309489330051251841e+02 3.851342016731379214e+00
3.317387872604589347e+02 3.839696178392719705e+00
3.325286415157925148e+02 3.827961043572766009e+00
3.333184957711262086e+02 3.816174492747623770e+00
3.341083500267017712e+02 3.804411057692257181e+00
3.348982042820354081e+02 3.792771364715085802e+00
3.356880585373691019e+02 3.781366004037537643e+00
3.364779127927027957e+02 3.770290338201968350e+00
3.372677670480364895e+02 3.759632321041572744e+00
3.380576213036119384e+02 3.749464574204025347e+00
3.388474755589456890e+02 3.739847335988093047e+00
3.396373298142793260e+02 3.730831529791596157e+00
3.404271840696129630e+02 3.722475703815359527e+00
3.412170383249465999e+02 3.714776825641767921e+00
3.420068925805222193e+02 3.707703882797928063e+00
3.427967468358559131e+02 3.701223530837121523e+00
3.435866010911894932e+02 3.695302944267838452e+00
3.443764553465232439e+02 3.689926778302331734e+00
3.451663096018568808e+02 3.685108586409945097e+00
3.459561638574324434e+02 3.680865947620731049e+00
3.467460181127660803e+02 3.677255421127223478e+00
3.475358723680997741e+02 3.674383591653083148e+00
3.483257266234334679e+02 3.672378273042706809e+00
3.491155808787671049e+02 3.671335936023200741e+00
3.499054351343426674e+02 3.671316873085706867e+00
3.506952893896763044e+02 3.672368376224190989e+00
3.514851436450100550e+02 3.674542785181122095e+00
3.522749979003436351e+02 3.677884488215458880e+00
3.530648521556773289e+02 3.682409521033003230e+00
3.538547064112528915e+02 3.688115482858876248e+00
3.546445606665865853e+02 3.694999955255927393e+00
3.554344149219202222e+02 3.703056320227791520e+00
3.562242691772539160e+02 3.712258802597479423e+00
3.570141234325876098e+02 3.722581308704724368e+00
3.578039776881630587e+02 3.734001585581559368e+00
3.585938319434967525e+02 3.746476581112710758e+00
3.593836861988304463e+02 3.759955443951049414e+00
3.601735404541641401e+02 3.774353175264017146e+00
3.609633947094977771e+02 3.789580340202623354e+00
3.617532489650733396e+02 3.805552938362349646e+00
3.625431032204070334e+02 3.822193344675592019e+00
3.633329574757406135e+02 3.839410343162016570e+00
3.641228117310743642e+02 3.857114228195688721e+00
3.649126659864080011e+02 3.875256822474291596e+00
3.657025202419835068e+02 3.893834553100350870e+00
3.664923744973173143e+02 3.912845375867135544e+00
3.672822287526508944e+02 3.932249975902653905e+00
3.680720830079845882e+02 3.951952152533482643e+00
3.688619372633182820e+02 3.971824977837830506e+00
3.696517915188937877e+02 3.991760382227543147e+00
3.704416457742274247e+02 4.011683442640014974e+00
3.712315000295611753e+02 4.031532357328122096e+00
3.720213542848947554e+02 4.051269623183441304e+00
3.728112085402284492e+02 4.070894552068787142e+00
3.736010627958040686e+02 4.090393503732496328e+00
3.743909170511376487e+02 4.109731614773018293e+00
3.751807713064713425e+02 4.128873316116497882e+00
3.759706255618049795e+02 4.147781967914887069e+00
3.767604798171387301e+02 4.166412515422731389e+00
3.775503340727141790e+02 4.184691573608045445e+00
3.783401883280478728e+02 4.202522527240380334e+00
3.791300425833816234e+02 4.219783799143444369e+00
3.799198968387152036e+02 4.236356253238318104e+00
3.807097510940488974e+02 4.252131442432312447e+00
3.814996053496244599e+02 4.267028411256728937e+00
3.822894596049581537e+02 4.281014738805741793e+00
3.830793138602917338e+02 4.294086288097674675e+00
3.838691681156254845e+02 4.306215298212746845e+00
3.846590223709591214e+02 4.317349689278726643e+00
3.854488766265346840e+02 4.327436113867275225e+00
3.862387308818683778e+02 4.336423253809201128e+00
3.870285851372020147e+02 4.344248954615818725e+00
3.878184393925357085e+02 4.350826919961367167e+00
3.886082936478693455e+02 4.356039381703300073e+00
3.893981479034449080e+02 4.359785121456127399e+00
3.901880021587785450e+02 4.362012978762390247e+00
3.909778564141122956e+02 4.362692912870428152e+00
3.917677106694459326e+02 4.361805686679253391e+00
3.925575649247795695e+02 4.359381188042418032e+00
3.933474191803551321e+02 4.355501143254643104e+00
3.941372734356888259e+02 4.350263364097807006e+00
3.949271276910224628e+02 4.343737474630458451e+00
3.957169819463560998e+02 4.335962890827422811e+00
3.965068362016898504e+02 4.326978120246851134e+00
3.972966904572652993e+02 4.316847562618027823e+00
3.980865447125989931e+02 4.305667167166527420e+00
3.988763989679327437e+02 4.293565811842558588e+00
3.996662532232663807e+02 4.280679731573958868e+00
4.004561074786000177e+02 4.267108322543811560e+00
4.012459617341755802e+02 4.252937101886489657e+00
4.020358159895092740e+02 4.238274291553155493e+00
4.028256702448428541e+02 4.223216506746464205e+00
4.036155245001766048e+02 4.207809866323343861e+00
4.044053787555102986e+02 4.192068373748093713e+00
4.051952330110857474e+02 4.176009360154322003e+00
4.059850872664195549e+02 4.159681622446796290e+00
4.067749415217531350e+02 4.143140548361929021e+00
4.075647957770868288e+02 4.126433595831470846e+00
4.083546500324205226e+02 4.109608681704633781e+00
4.091445042879960283e+02 4.092715778838163843e+00
4.099343585433296653e+02 4.075808967860155896e+00
4.107242127986633022e+02 4.058949450051259511e+00
4.115140670539971097e+02 4.042173361114184793e+00
4.123039213093306898e+02 4.025468554541014932e+00
4.130937755649062524e+02 4.008810447008543498e+00
4.138836298202398893e+02 3.992195122193745505e+00
4.146734840755735831e+02 3.975636049305549147e+00
4.154633383309072201e+02 3.959180433010188516e+00
4.162531925862409707e+02 3.942901217329128905e+00
4.170430468418164764e+02 3.926876209381365168e+00
4.178329010971501134e+02 3.911172537704452612e+00
4.186227553524838640e+02 3.895874489925532647e+00
4.194126096078174442e+02 3.881101599139804570e+00
4.202024638631511380e+02 3.866957682968833687e+00
4.209923181187267005e+02 3.853510343556659112e+00
4.217821723740603943e+02 3.840802124084078173e+00
4.225720266293940313e+02 3.828854991921559758e+00
4.233618808847277251e+02 3.817695066055843967e+00
4.241517351400614189e+02 3.807362256177199367e+00
4.249415893956369246e+02 3.797871490668477179e+00
4.257314436509706184e+02 3.789202790055772763e+00
4.265212979063042553e+02 3.781319743284724755e+00
4.273111521616379491e+02 3.774191133827221378e+00
4.281010064169715292e+02 3.767762269648259998e+00
4.288908606725471486e+02 3.761957212204926737e+00
4.296807149278808424e+02 3.756712820911225492e+00
4.304705691832144794e+02 3.752008180769382140e+00
4.312604234385481732e+02 3.747860822940428882e+00
4.320502776938818101e+02 3.744273104438325728e+00
4.328401319494573727e+02 3.741232779937939235e+00
4.336299862047910665e+02 3.738751041143670850e+00
4.344198404601247034e+02 3.736876598936198501e+00
4.352096947154583972e+02 3.735654238522675641e+00
4.359995489707920910e+02 3.735102909218526612e+00
4.367894032263676536e+02 3.735183091980733394e+00
4.375792574817012337e+02 3.735806339672347764e+00
4.383691117370349843e+02 3.736848550685416992e+00
4.391589659923686213e+02 3.738164589526041581e+00
4.399488202477022583e+02 3.739620873375036680e+00
4.407386745032778208e+02 3.741118110460870394e+00
4.415285287586115146e+02 3.742554275837808309e+00
4.423183830139452084e+02 3.743787479105686877e+00
4.431082372692788454e+02 3.744634713214487487e+00
4.438980915246125392e+02 3.744923322992840919e+00
4.446879457801879880e+02 3.744521832464613453e+00
4.454778000355216818e+02 3.743375393857241828e+00
4.462676542908553756e+02 3.741471877410479596e+00
4.470575085461890694e+02 3.738803293160241736e+00
4.478473628015227632e+02 3.735356252005530120e+00
4.486372170570982689e+02 3.731123698655817389e+00
4.494270713124319627e+02 3.726131939552919992e+00
4.502169255677655428e+02 3.720411573402284233e+00
4.510067798230993503e+02 3.713933016821960642e+00
4.517966340784329304e+02 3.706646539845609212e+00
4.525864883340084930e+02 3.698490746094650117e+00
4.533763425893421299e+02 3.689404944126137842e+00
4.541661968446758237e+02 3.679357185115378126e+00
4.549560511000095175e+02 3.668321271095615455e+00
4.557459053553432113e+02 3.656303518197608238e+00
4.565357596109187170e+02 3.643357080904956469e+00
4.573256138662523540e+02 3.629582903866132693e+00
4.581154681215861046e+02 3.615123943813149943e+00
4.589053223769196848e+02 3.600173093557445636e+00
4.596951766322533786e+02 3.584989773505279587e+00
4.604850308878289979e+02 3.569878690463440307e+00
4.612748851431626349e+02 3.555156033687682182e+00
4.620647393984962719e+02 3.541129830398173528e+00
4.628545936538299088e+02 3.528086155042785776e+00
4.636444479091636595e+02 3.516265150243004456e+00
4.644343021647391652e+02 3.505819134229861689e+00
4.652241564200728021e+02 3.496820586326106817e+00
4.660140106754065528e+02 3.489331896643498521e+00
4.668038649307401897e+02 3.483417101929171533e+00
4.675937191860738267e+02 3.479126424414370256e+00
4.683835734416493892e+02 3.476469477582489365e+00
4.691734276969830830e+02 3.475423095168833854e+00
4.699632819523167200e+02 3.475959332480493380e+00
4.707531362076504138e+02 3.478055137020251930e+00
4.715429904629840507e+02 3.481691888841591087e+00
4.723328447185596133e+02 3.486861880210900377e+00
4.731226989738933639e+02 3.493550090620711313e+00
4.739125532292269440e+02 3.501742972137877885e+00
4.747024074845606378e+02 3.511412400842490289e+00
4.754922617398943316e+02 3.522510122504384888e+00
4.762821159954698942e+02 3.535004439927206477e+00
4.770719702508034743e+02 3.548850569792387333e+00
4.778618245061372249e+02 3.563982993975855162e+00
4.786516787614709187e+02 3.580286074797393248e+00
4.794415330168044989e+02 3.597569188947807639e+00
4.802313872723800614e+02 3.615637577456277896e+00
4.810212415277137552e+02 3.634328320936540901e+00
4.818110957830474490e+02 3.653468320861786633e+00
4.826009500383810291e+02 3.672872419234562091e+00
4.833908042937147798e+02 3.692383999974816255e+00
4.841806585492902286e+02 3.711886019350955745e+00
4.849705128046239224e+02 3.731312681974089607e+00
4.857603670599576731e+02 3.750629864570518279e+00
4.865502213152913100e+02 3.769835125832717182e+00
4.873400755706250038e+02 3.788931767844110343e+00
4.881299298262005095e+02 3.807960742304208335e+00
4.889197840815342033e+02 3.827023768031762252e+00
4.897096383368677834e+02 3.846239762180521549e+00
4.904994925922015909e+02 3.865694010710044370e+00
4.912893468475352279e+02 3.885445325383167781e+00
4.920792011031107336e+02 3.905496545416006882e+00
4.928690553584444842e+02 3.925807962309923127e+00
4.936589096137780643e+02 3.946320309866776288e+00
4.944487638691117581e+02 3.966941848291077211e+00
4.952386181244454519e+02 3.987553111285252250e+00
4.960284723800209576e+02 4.008053089848361950e+00
4.968183266353545946e+02 4.028345762574256916e+00
4.976081808906883452e+02 4.048346785582197960e+00
4.983980351460220390e+02 4.068006215001870984e+00
4.991878894013556192e+02 4.087300643136486222e+00
4.999777436569311817e+02 4.106198347161381434e+00
5.007675979122649323e+02 4.124645778478913449e+00
5.015574521675985125e+02 4.142604860212012241e+00
5.023473064229321494e+02 4.160058345156397941e+00
5.031371606782658432e+02 4.177023013679973751e+00
5.039270149338414626e+02 4.193533970799284916e+00
5.047168691891750427e+02 4.209636404570258783e+00
5.055067234445087365e+02 4.225400228599187180e+00
5.062965776998424872e+02 4.240922836752667457e+00
5.070864319551760673e+02 4.256285402979073318e+00
5.078762862107516298e+02 4.271572837477628504e+00
5.086661404660852668e+02 4.286888137781097896e+00
5.094559947214190174e+02 4.302295947748248750e+00
5.102458489767526544e+02 4.317789104982344917e+00
5.110357032320862913e+02 4.333294237771912805e+00
5.118255574876619107e+02 4.348719673358442783e+00
5.126154117429955477e+02 4.363997046455994067e+00
5.134052659983292415e+02 4.379086722315078894e+00
5.141951202536628216e+02 4.393934727410966801e+00
5.149849745089965154e+02 4.408461765462752702e+00
5.157748287645721348e+02 4.422573948591583815e+00
5.165646830199057149e+02 4.436192635403802598e+00
5.173545372752394087e+02 4.449267858464667214e+00
5.181443915305731025e+02 4.461778439167444432e+00
5.189342457859067963e+02 4.473716328229051520e+00
5.197241000414823020e+02 4.485057619596656053e+00
5.205139542968161095e+02 4.495759814453705872e+00
5.213038085521496896e+02 4.505777325093260899e+00
5.220936628074832697e+02 4.515080316019161266e+00
5.228835170628169635e+02 4.523641931515822279e+00
5.236733713183925829e+02 4.531408528444859307e+00
5.244632255737261630e+02 4.538329479305627245e+00
5.252530798290598568e+02 4.544351899345407730e+00
5.260429340843936643e+02 4.549412358278311252e+00
5.268327883397272444e+02 4.553442246328172516e+00
5.276226425953027501e+02 4.556372251352794223e+00
5.284124968506365576e+02 4.558135579246186175e+00
5.292023511059701377e+02 4.558663627566334142e+00
5.299922053613038315e+02 4.557910449002807063e+00
5.307820596166374116e+02 4.555816046302240352e+00
5.315719138722130310e+02 4.552325264071355626e+00
5.323617681275466111e+02 4.547412287197656333e+00
5.331516223828803049e+02 4.541085524120679118e+00
5.339414766382138851e+02 4.533386466568567919e+00
5.347313308935476925e+02 4.524385421222618220e+00
5.355211851491231982e+02 4.514185008069964589e+00
5.363110394044567784e+02 4.502912214794963397e+00
5.371008936597905858e+02 4.490723760084030403e+00
5.378907479151242796e+02 4.477813082495135433e+00
5.386806021704578598e+02 4.464436184370801364e+00
5.394704564260334791e+02 4.450889660973103013e+00
5.402603106813671729e+02 4.437433597264790919e+00
5.410501649367007531e+02 4.424228035261044134e+00
5.418400191920343332e+02 4.411350060518572036e+00
5.426298734473681407e+02 4.398836371292444980e+00
5.434197277029436464e+02 4.386701785011181798e+00
5.442095819582773402e+02 4.374976118126519431e+00
5.449994362136110340e+02 4.363672506557638719e+00
5.457892904689447278e+02 4.352796849452433392e+00
5.465791447242783079e+02 4.342347693077314830e+00
5.473689989798539273e+02 4.332323169526308249e+00
5.481588532351876211e+02 4.322753195545191218e+00
5.489487074905212012e+02 4.313684998405141080e+00
5.497385617458548950e+02 4.305154841264551280e+00
5.505284160011885888e+02 4.297161809782702235e+00
5.513182702567642082e+02 4.289697038208903912e+00
5.521081245120977883e+02 4.282772666743801082e+00
5.528979787674314821e+02 4.276420725526747901e+00
5.536878330227651759e+02 4.270685255210134201e+00
5.544776872780987560e+02 4.265643663778209138e+00
5.552675415336743754e+02 4.261384090102722233e+00
5.560573957890079555e+02 4.257976813349081624e+00
5.568472500443417630e+02 4.255448884451427993e+00
5.576371042996753431e+02 4.253834417006455482e+00
5.584269585550090369e+02 4.253187865433890380e+00
5.592168128105846563e+02 4.253563638942512881e+00
5.600066670659182364e+02 4.254946053898938985e+00
5.607965213212519302e+02 4.257253295146521843e+00
5.615863755765855103e+02 4.260358263831065528e+00
5.623762298319193178e+02 4.264108719790448809e+00
5.631660840874948235e+02 4.268341748964412652e+00
5.639559383428284036e+02 4.272899468942241263e+00
5.647457925981620974e+02 4.277619285526570003e+00
5.655356468534957912e+02 4.282324915907904206e+00
5.663255011088294850e+02 4.286837727685250066e+00
5.671153553644049907e+02 4.291017642068275073e+00
5.679052096197387982e+02 4.294747534715816606e+00
5.686950638750723783e+02 4.297937849687286871e+00
5.694849181304059584e+02 4.300534633918184468e+00
5.702747723857396522e+02 4.302525362194789871e+00
5.710646266413152716e+02 4.303888320378776555e+00
5.718544808966488517e+02 4.304598460288306505e+00
5.726443351519825455e+02 4.304629640082988651e+00
5.734341894073163530e+02 4.303976499767130370e+00
5.742240436626499331e+02 4.302678881873517547e+00
5.750138979182254388e+02 4.300814722043699412e+00
5.758037521735591326e+02 4.298471087453227035e+00
5.765936064288928264e+02 4.295733197758852207e+00
5.773834606842265202e+02 4.292707304729123763e+00
5.781733149395601004e+02 4.289500493152087479e+00
5.789631691951357197e+02 4.286148269128822186e+00
5.797530234504694135e+02 4.282615482223488534e+00
5.805428777058029937e+02 4.278859982049813659e+00
5.813327319611366875e+02 4.274899657700377276e+00
5.821225862164703813e+02 4.270773346005757531e+00
5.829124404720458870e+02 4.266486711037305035e+00
5.837022947273795808e+02 4.262014363392060190e+00
5.844921489827132746e+02 4.257320438248381578e+00
5.852820032380469684e+02 4.252406769756880145e+00
5.860718574933805485e+02 4.247331096610346357e+00
5.868617117489561679e+02 4.242179901627105565e+00
5.876515660042898617e+02 4.237057498839985392e+00
5.884414202596234418e+02 4.232089636732093041e+00
5.892312745149571356e+02 4.227381047051181895e+00
5.900211287702907157e+02 4.223008017201904885e+00
5.908109830258663351e+02 4.219012559915888971e+00
5.916008372812000289e+02 4.215450997545674205e+00
5.923906915365337227e+02 4.212398575485718943e+00
5.931805457918674165e+02 4.209917739031734385e+00
5.939704000472009966e+02 4.208000330194957783e+00
5.947602543027766160e+02 4.206575739358616950e+00
5.955501085581101961e+02 4.205542256922527145e+00
5.963399628134438899e+02 4.204833580847119556e+00
5.971298170687775837e+02 4.204437772750546642e+00
5.979196713241112775e+02 4.204325366153421228e+00
5.987095255796868969e+02 4.204434521303111794e+00
5.994993798350205907e+02 4.204687430205908072e+00
6.002892340903541708e+02 4.205012724058938112e+00
6.010790883456877509e+02 4.205351815782043090e+00
6.018689426010214447e+02 4.205681150922067069e+00
6.026587968565970641e+02 4.206013328526079675e+00
6.034486511119306442e+02 4.206374143446990566e+00
6.042385053672644517e+02 4.206731745423470059e+00
6.050283596225981455e+02 4.207046656960606867e+00
6.058182138779317256e+02 4.207298172472590636e+00
6.066080681335072313e+02 4.207500206023002676e+00
6.073979223888410388e+02 4.207661458881167604e+00
6.081877766441746189e+02 4.207746710877738217e+00
6.089776308995081990e+02 4.207691421627322015e+00
6.097674851548420065e+02 4.207437375738117602e+00
6.105573394104175122e+02 4.206912069243490926e+00
6.113471936657510923e+02 4.206038922124037072e+00
6.121370479210847861e+02 4.204767165358403780e+00
6.129269021764185936e+02 4.203038149042778393e+00
6.137167564317521737e+02 4.200761738288480096e+00
6.145066106873276794e+02 4.197847234913059111e+00
6.152964649426614869e+02 4.194234660734236009e+00
6.160863191979950670e+02 4.189870472725051087e+00
6.168761734533287608e+02 4.184680492115374406e+00
6.176660277086623410e+02 4.178566892440262137e+00
6.184558819642379603e+02 4.171435710951906906e+00
6.192457362195715405e+02 4.163192536612124961e+00
6.200355904749052343e+02 4.153750728261392133e+00
6.208254447302388144e+02 4.143079771646356768e+00
6.216152989855726219e+02 4.131245228979077311e+00
6.224051532411481276e+02 4.118370763599236817e+00
6.231950074964818214e+02 4.104574602434833075e+00
6.239848617518155152e+02 4.089984523572209874e+00
6.247747160071492090e+02 4.074774987183864106e+00
6.255645702624827891e+02 4.059132972367788028e+00
6.263544245180584085e+02 4.043221886822220945e+00
6.271442787733921023e+02 4.027163287327140573e+00
6.279341330287256824e+02 4.011048656802783441e+00
6.287239872840593762e+02 3.994973280530428106e+00
6.295138415393930700e+02 3.979046424554530059e+00
6.303036957949686894e+02 3.963359875275792810e+00
6.310935500503022695e+02 3.947982118987700684e+00
6.318834043056359633e+02 3.932966646179228754e+00
6.326732585609696571e+02 3.918373868916499525e+00
6.334631128163032372e+02 3.904274108998887272e+00
6.342529670718788566e+02 3.890741288786887964e+00
6.350428213272125504e+02 3.877857353096675119e+00
6.358326755825462442e+02 3.865668582797625596e+00
6.366225298378798243e+02 3.854194552788300143e+00
6.374123840932135181e+02 3.843472432466065847e+00
6.382022383487891375e+02 3.833539627093532687e+00
6.389920926041227176e+02 3.824436680410580269e+00
6.397819468594564114e+02 3.816174866093275053e+00
6.405718011147901052e+02 3.808740109390618578e+00
6.413616553701237990e+02 3.802078447040388554e+00
6.421515096256991910e+02 3.796117303431248313e+00
6.429413638810329985e+02 3.790816729759742376e+00
6.437312181363666923e+02 3.786159222402480928e+00
6.445210723917002724e+02 3.782133537021573400e+00
6.453109266470339662e+02 3.778727705214854460e+00
6.461007809026095856e+02 3.775909174299584503e+00
6.468906351579431657e+02 3.773628784504123868e+00
6.476804894132767458e+02 3.771827870223781076e+00
6.484703436686105533e+02 3.770460797543079501e+00
6.492601979239442471e+02 3.769454166070494772e+00
6.500500521795197528e+02 3.768671232359411594e+00
6.508399064348533329e+02 3.767960194864596879e+00
6.516297606901869131e+02 3.767210889012476915e+00
6.524196149455207205e+02 3.766309442100847615e+00
6.532094692008545280e+02 3.765118405381255418e+00
6.539993234564299200e+02 3.763473201427838699e+00
6.547891777117637275e+02 3.761228842161177699e+00
6.555790319670973076e+02 3.758303274759209334e+00
6.563688862224308878e+02 3.754659229569826451e+00
6.571587404777644679e+02 3.750310828097604965e+00
6.579485947333403146e+02 3.745330204727816081e+00
6.587384489886738947e+02 3.739763884390034487e+00
6.595283032440074749e+02 3.733622382338672718e+00
6.603181574993412823e+02 3.726921250304971789e+00
6.611080117546748625e+02 3.719646288953364355e+00
6.618978660102503682e+02 3.711760939824452432e+00
6.626877202655840620e+02 3.703230903339667979e+00
6.634775745209178694e+02 3.694046506981188749e+00
6.642674287762514496e+02 3.684212903537145589e+00
6.650572830315850297e+02 3.673735965936404835e+00
6.658471372871606491e+02 3.662593855864638925e+00
6.666369915424943429e+02 3.650756416315703579e+00
6.674268457978279230e+02 3.638234670082927114e+00
6.682167000531616168e+02 3.625147056007624435e+00
6.690065543084954243e+02 3.611689550847154262e+00
6.697964085640708163e+02 3.598078995145573167e+00
6.705862628194045101e+02 3.584559952075996314e+00
6.713761170747382039e+02 3.571356342707455056e+00
6.721659713300718977e+02 3.558645924259579374e+00
6.729558255854055915e+02 3.546562942283054909e+00
6.737456798409810972e+02 3.535185164202349295e+00
6.745355340963147910e+02 3.524571464646741425e+00
6.753253883516483711e+02 3.514764569918838344e+00
6.761152426069820649e+02 3.505820586705779451e+00
6.769050968623156450e+02 3.497820153720682779e+00
6.776949511178913781e+02 3.490813349467877025e+00
6.784848053732250719e+02 3.484797892165282018e+00
6.792746596285586520e+02 3.479749211895610816e+00
6.800645138838923458e+02 3.475644400260865741e+00
6.808543681392259259e+02 3.472493495168152311e+00
6.816442223948014316e+02 3.470309598826288422e+00
6.824340766501352391e+02 3.469087353022269227e+00
6.832239309054689329e+02 3.468825152815961044e+00
6.840137851608026267e+02 3.469531014342460473e+00
6.848036394161362068e+02 3.471193547303950577e+00
6.855934936717118262e+02 3.473743747585040342e+00
6.863833479270454063e+02 3.477068889574339572e+00
6.871732021823789864e+02 3.481115845088472938e+00
6.879630564377127939e+02 3.485880141688112666e+00
6.887529106930464877e+02 3.491348292678439158e+00
6.895427649486219934e+02 3.497504307738790619e+00
6.903326192039555735e+02 3.504362296185842940e+00
6.911224734592893810e+02 3.511962202478766226e+00
6.919123277146229611e+02 3.520315696332367406e+00
6.927021819699566549e+02 3.529424475245550141e+00
6.934920362255321606e+02 3.539292392377753060e+00
6.942818904808659681e+02 3.549878214148343147e+00
6.950717447361995482e+02 3.561059950210347047e+00
6.958615989915331284e+02 3.572686970206323753e+00
6.966514532468669358e+02 3.584607697943420046e+00
6.974413075024425552e+02 3.596691189301133740e+00
6.982311617577761353e+02 3.608861228083808381e+00
6.990210160131097155e+02 3.621040886917023638e+00
6.998108702684435229e+02 3.633137302443539163e+00
7.006007245237771031e+02 3.645072994452371873e+00
7.013905787793526088e+02 3.656749206872994762e+00
7.021804330346863026e+02 3.668064046992554506e+00
7.029702872900201100e+02 3.678935404127996911e+00
7.037601415453536902e+02 3.689315240097756021e+00
7.045499958006872703e+02 3.699187590000533987e+00
7.053398500562628897e+02 3.708538678592482984e+00
7.061297043115964698e+02 3.717337004854018634e+00
7.069195585669301636e+02 3.725542711027032716e+00
7.077094128222638574e+02 3.733113426742202368e+00
7.084992670775976649e+02 3.740032635812267081e+00
7.092891213331731706e+02 3.746286903351568220e+00
7.100789755885067507e+02 3.751863219987062958e+00
7.108688298438404445e+02 3.756783903250576984e+00
7.116586840991740246e+02 3.761115611147637150e+00
7.124485383545078321e+02 3.764958464614656997e+00
7.132383926100833378e+02 3.768440679324368325e+00
7.140282468654170316e+02 3.771717172986060351e+00
7.148181011207507254e+02 3.774938706927002841e+00
7.156079553760843055e+02 3.778253794114399433e+00
7.163978096314179993e+02 3.781842129451109091e+00
7.171876638869935050e+02 3.785892611060564406e+00
7.179775181423271988e+02 3.790573806362631970e+00
7.187673723976608926e+02 3.796050564113421011e+00
7.195572266529945864e+02 3.802455403117944943e+00
7.203470809083282802e+02 3.809841795552178390e+00
7.211369351639036722e+02 3.818227637695372323e+00
7.219267894192374797e+02 3.827625160059906051e+00
7.227166436745711735e+02 3.838004881318306527e+00
7.235064979299047536e+02 3.849285754924423042e+00
7.242963521852384474e+02 3.861371892154406904e+00
7.250862064408140668e+02 3.874134404207587590e+00
7.258760606961476469e+02 3.887456610298639426e+00
7.266659149514812270e+02 3.901217891032466856e+00
7.274557692068150345e+02 3.915279569418077976e+00
7.282456234621487283e+02 3.929476438754850864e+00
7.290354777177242340e+02 3.943639630893684078e+00
7.298253319730578141e+02 3.957666863553000347e+00
7.306151862283916216e+02 3.971523040159171014e+00
7.314050404837252017e+02 3.985183167204854104e+00
7.321948947390587819e+02 3.998607283434854498e+00
7.329847489946346286e+02 4.011770966836568419e+00
7.337746032499682087e+02 4.024692473148887117e+00
7.345644575053017888e+02 4.037417813646222875e+00
7.353543117606353690e+02 4.049984349954348417e+00
7.361441660159691764e+02 4.062417612453344873e+00
7.369340202715445685e+02 4.074717036209317911e+00
7.377238745268783759e+02 4.086849302873066136e+00
7.385137287822119561e+02 4.098768617181468343e+00
7.393035830375457635e+02 4.110458489443811203e+00
7.400934372928793437e+02 4.121930732315739476e+00
7.408832915484548494e+02 4.133182357725204703e+00
7.416731458037885432e+02 4.144190042182814615e+00
7.424630000591223506e+02 4.154927328443836387e+00
7.432528543144559308e+02 4.165380339633701468e+00
7.440427085697895109e+02 4.175547079302090125e+00
7.448325628253651303e+02 4.185436832590770706e+00
7.456224170806988241e+02 4.195034141961407670e+00
7.464122713360324042e+02 4.204350145229704516e+00
7.472021255913660980e+02 4.213440664466330254e+00
7.479919798466999055e+02 4.222381971642122700e+00
7.487818341022752975e+02 4.231262714789738588e+00
7.495716883576089913e+02 4.240182611697302484e+00
7.503615426129426851e+02 4.249223879525295011e+00
7.511513968682763789e+02 4.258456949577486661e+00
7.519412511236099590e+02 4.267941268568388402e+00
7.527311053791856921e+02 4.277730655339812671e+00
7.535209596345192722e+02 4.287863897071849451e+00
7.543108138898528523e+02 4.298343853483889809e+00
7.551006681451865461e+02 4.309161197918962571e+00
7.558905224005202399e+02 4.320300200086850673e+00
7.566803766560957456e+02 4.331712430314832218e+00
7.574702309114295531e+02 4.343326720403417163e+00
7.582600851667632469e+02 4.355072039646268323e+00
7.590499394220968270e+02 4.366891555548078507e+00
7.598397936774304071e+02 4.378753862638331995e+00
7.606296479330059128e+02 4.390626013345879208e+00
7.614195021883397203e+02 4.402507020205456811e+00
7.622093564436734141e+02 4.414388300402910303e+00
7.629992106990071079e+02 4.426261184695796658e+00
7.637890649543406880e+02 4.438143502701878518e+00
7.645789192099163074e+02 4.450087178204298333e+00
7.653687734652498875e+02 4.462137619873600691e+00
7.661586277205834676e+02 4.474342750437512173e+00
7.669484819759172751e+02 4.486751974035575685e+00
7.677383362312509689e+02 4.499383470648106176e+00
7.685281904868264746e+02 4.512224946915933899e+00
7.693180447421600547e+02 4.525266001060824550e+00
7.701078989974938622e+02 4.538486615014912573e+00
7.708977532528274423e+02 4.551858881014115177e+00
7.716876075081610225e+02 4.565365859867392295e+00
7.724774617637367555e+02 4.578981199956781545e+00
7.732673160190704493e+02 4.592637885799794262e+00
7.740571702744040294e+02 4.606243301817252167e+00
7.748470245297376096e+02 4.619679505200646297e+00
7.756368787850714170e+02 4.632847886086762124e+00
7.764267330406469227e+02 4.645685876760603961e+00
7.772165872959806165e+02 4.658142878970453538e+00
7.780064415513143103e+02 4.670138698195066773e+00
7.787962958066480041e+02 4.681571693915305588e+00
7.795861500619815843e+02 4.692351833764354829e+00
7.803760043175570900e+02 4.702389920587178196e+00
7.811658585728907838e+02 4.711644619803488254e+00
7.819557128282245912e+02 4.720123979426383620e+00
7.827455670835581714e+02 4.727878024577812255e+00
7.835354213388918652e+02 4.734979067559194732e+00
7.843252755944673709e+02 4.741504553646909592e+00
7.851151298498009510e+02 4.747507792112597436e+00
7.859049841051346448e+02 4.753011055759222003e+00
7.866948383604683386e+02 4.758013115892437916e+00
7.874846926158021461e+02 4.762499914663390399e+00
7.882745468713776518e+02 4.766460830889404754e+00
7.890644011267113456e+02 4.769844467759265072e+00
