27
units: a.u. (T=20 K) 2020-12-10 18:39:41
F 0.0001257887840181356 3.0960537956229694e-05 1.8918245057121016e-05
Si -1.0478631425833161e-05 -0.00025982946321032355 -3.5572757511541176e-05
C -0.000104015693932609 3.303020679642954e-05 -0.00046512099982567935
C 0.0001831114416234936 -0.00021987405372617136 -0.00020507500255597836
C -0.0001556870990632171 2.9866187222692856e-05 -0.0001296098128668748
C 0.0001638039587309678 0.00035478144325449526 -6.044849398302057e-05
H 0.00024565546865479705 0.00022811190704605754 0.0014849635678210289
H 0.0008401212078553104 6.629512464650976e-06 -0.00040263340796430774
H 0.001184403301330139 0.00033794898984354125 0.0002445445127828434
H 0.0008342890029512852 0.0012441321417884822 0.0003361741298121385
H -0.0008327577201556591 0.0005152510730129227 0.0018380611680018238
H -0.0009016005252205098 0.0017338915089914876 0.0007923020712511148
H -0.00011965603143139928 0.0008771131572291044 -0.0012464387713263904
H 0.0017397029063392763 4.014889222927508e-05 0.00021820730045220472
H -0.0005428714126776675 0.0004880710960711314 -0.0022861395031164855
C 4.926373383781494e-06 3.002178946892884e-05 0.0003547681880043474
C -0.00019283763356357572 2.5968455853427433e-05 0.00037360314201037283
C -7.322035508680167e-05 -0.0002594410728801286 0.00021872097353229072
C -0.00016981573846802563 -0.00021303845537435747 8.789208981410914e-05
C 0.00011883323943089649 -0.0002679777131216161 -3.8879461500926414e-05
C 4.278307415647583e-05 -0.00024644233961123934 -0.00024823248681471693
C -0.00011409184034473338 0.00026141852581806793 -0.00011367101943190077
H 0.00018804354860837259 0.0016007793371061725 0.0007441306889120066
H 0.0008895690269088878 0.0011695339997627556 -0.000574039021477423
H -0.0006908478657768427 0.0020939581264406777 0.0007314800880786803
H -0.001657449967024302 0.0009100541751646718 0.0015358126839006608
H 0.0002738899599298298 0.0010317438928094387 -8.810594617614385e-05
