27
units: a.u. (T=20 K) 2020-12-10 18:39:40
F 0.00012666550418619047 3.132222314086466e-05 1.4985254763024778e-05
Si -7.433702040176234e-05 -0.00021251294734836532 2.5607905731206372e-05
C -0.0001487630657846276 0.00012066016946999415 -0.0004576137038831374
C 0.0001399547084905514 -0.00023387753306480463 -0.0002039418911367812
C -3.540565159042522e-05 -2.6873850239507338e-05 -1.9190394124416592e-05
C 0.00017933286413960843 0.00031232127737558014 3.1793543216101223e-06
H 0.00045273221547444223 -0.0001913407205503443 0.0013593606412098903
H 0.0007179217336326544 0.00024501978333866755 -0.00029979169514740306
H 0.001173617649914501 0.0008418186544287245 -1.3578375249413256e-05
H 0.0010003175469575094 0.001389419229090958 -0.0001712962403913643
H -0.0007670868222363811 0.00048072052893410584 0.0015123590954521607
H -0.00036487183865397896 0.0017336387929750264 0.0004783526685205318
H -0.00016522661496256772 0.0005094919278345975 -0.0016147297546305409
H 0.001755198003444592 -0.00017729513173617934 0.00026907101102908136
H -0.00022491937600590688 0.00014473112818581962 -0.0022879837074309332
C -0.0001896212858919425 5.442518047713592e-05 0.00015103435040657534
C -0.00016279435262056525 0.0001272935741888973 0.00041956032426760515
C -2.2810592428035353e-05 -0.0002747767811097479 0.00018664414463349902
C -6.7662484335844e-05 -0.00026101803977989966 4.270557301046852e-05
C 6.953211552196325e-05 -0.00021410126804207645 6.487619817830099e-05
C 0.00012918350302983545 -0.00031195058710298067 -0.0002445621668718977
C -0.00017807430592498477 0.00024096754276893586 -8.173571390056383e-05
H 0.0005333258818417516 0.001420454756328122 0.0007853231288831821
H 0.0007063827309324037 0.0007908845297176131 -0.000769466933431275
H -0.0005499246261932264 0.001737028855644665 0.0006148215892647363
H -0.0013443005381780515 0.0008270544375130641 0.0014210375183757542
H 0.00018202691034056558 0.0011437412448923828 -0.0006226661321055057
