27
units: a.u. (T=20 K) 2020-12-10 18:39:42
F 0.00012217758302755056 3.5522729086316985e-05 2.1128436610617755e-05
Si -0.00010541091577685082 -0.00023739452600952078 -0.0001109774045055311
C -1.8722635657465e-05 7.453717945779825e-05 -0.00030021905994031574
C 0.00018846775501281802 -0.00018814991705157067 -9.953807298591311e-05
C 4.126273659911888e-07 -3.799891236526511e-05 -0.00010245573965077213
C 0.00023447268311826185 0.00023499514318323008 -5.534918547407759e-05
H 0.0005463185339237202 0.00027193265467049686 0.001258832147025715
H 0.0006299844934508684 0.00010753925698559413 -0.00024832976350614203
H 0.0012846773884961755 0.0004743693728990775 0.0001611729020520322
H 0.0005446418506797315 0.0015216590944151448 0.0005890052329607961
H -0.000732953714644855 0.00067178157144485 0.0014704918485150093
H -0.0009281794772350358 0.0016228114405323168 0.0006870297404893305
H -8.693025114342779e-05 0.0004992893502647416 -0.0018572323175359846
H 0.0017147203319706817 -8.143004688995333e-05 0.00030085802575522205
H 5.638503826962283e-06 0.0005069388672264125 -0.002249275056908584
C -0.00014749400476184413 0.00011908885716205872 0.0001292713075702228
C -0.00012160570483931645 0.00010858375495955525 0.00045949165853441967
C 1.996471297939233e-05 -0.000289281284408247 0.00018714461131843395
C -0.0001779181817361518 -0.00021458230236635152 1.7394855911380003e-06
C -2.516106302775991e-05 -0.00028466617235411046 0.0001120075877591992
C 0.00012506220733853686 -0.00031022388779521016 -0.00020049140979333372
C -0.0002356014772007139 0.00026102319134636305 -9.150275561213302e-05
H 0.0002931804296748586 0.0014526350686347297 0.0008021566507938015
H 0.000981964032450136 0.001228467628144936 -0.0005475876369842451
H -0.0004875465234435139 0.0017146589116100175 0.0005193033921683436
H -0.0012610940499233276 0.0008993281698296203 0.0014542502306444335
H 1.4010085158403891e-05 0.0013314635486482446 -0.00012433470797608366
