27
units: a.u. (T=20 K) 2020-12-10 18:39:41
F 0.00012972362078757994 3.614163963610361e-05 2.2323738178529312e-05
Si 1.2355266922724329e-05 -0.00023540335591969855 -1.8582147293014424e-05
C -5.58317030047214e-05 8.783249702623334e-05 -0.00037769094545830813
C 0.0001485566645589696 -9.633269096933009e-05 -0.00014635452797143525
C -6.071162946106627e-06 3.947183134291333e-06 -6.444739815062338e-05
C 0.0002557537596789658 0.0002678072899651807 -6.41426500511031e-05
H 0.0002611640230507808 0.0002496275586584418 0.001157299631949186
H 0.0011634443509343619 0.00013763469569831553 0.00011169744179385845
H 0.001446398559362613 0.00046555853206066005 6.565184295948491e-05
H 0.0012078832657653601 0.002090331488309874 -5.971697140507115e-05
H -0.0006437300911193574 0.000293840411986615 0.0012387153294461557
H -0.0009107872969781426 0.001764098389443334 0.00016495957371800957
H -0.00013514480615258785 0.0004888411601673696 -0.0014760945069612094
H 0.0014225269857280087 -0.0002471995961541784 0.0005021357729819524
H -0.00030550899298470544 0.00026636277371285525 -0.0020742751165629836
C -0.00018373310221258 -1.1667561216039799e-05 0.00021141971235453445
C -0.00024796976132474734 0.00010577413591417207 0.00041648844758118486
C -4.3086683666840724e-05 -0.00027847987977847814 0.00012005334014764342
C -0.00023884676116060508 -0.0001766054071961817 1.9839768515881295e-05
C 0.00010978725425756112 -0.0002505995852016178 5.861946587001568e-05
C 0.00010899147813017938 -0.00030966616797047954 -0.0002884175632956346
C -0.0003020577529365928 0.0001869739144290954 -9.261620728128469e-05
H 0.00018491220818741785 0.001284299965586682 0.0009532878642548946
H 0.0007413351083553939 0.0008586827392566177 -0.00040850399046422084
H -0.00022845448501594782 0.0019476886803492046 0.0009451140493732062
H -0.001631629371159183 0.0006456429630482621 0.0013008154564122948
H 5.392960208912841e-05 0.001245651741106924 0.0001455094368862037
