27
units: a.u. (T=20 K) 2020-12-10 18:39:40
F 0.00011748912600542125 3.8696043691724375e-05 1.4368864953688246e-05
Si -3.1491088804355885e-06 -0.00031682536017004696 -2.293603583647322e-06
C -8.358550743786494e-05 1.0922711628277015e-05 -0.0003464255342418027
C 0.00015294484546082466 -7.693404647783543e-05 -0.00012638633515511076
C 4.9620800345125036e-05 4.964185762915677e-05 -0.00010645176111457169
C 0.00012484226873715903 0.00027924332944532186 -7.025466922628333e-05
H 7.476490905866037e-05 0.00025038528669619824 0.001059545307258303
H 0.0008572955838542961 0.0004036397879370815 -0.00033742051444533107
H 0.001173836766883545 0.000794293183983496 -0.0001233247229931028
H 0.0009511411142481836 0.00197955599874424 -8.917867453720007e-05
H -0.0008418922824313029 0.0005137670514490086 0.0013894198813110285
H -0.000691746864019435 0.0016114580083567344 0.00022063498745323554
H -0.00017924882873844242 0.00048785851778333745 -0.001318056230261113
H 0.0016857338899053508 8.934849862576229e-05 0.00022982080763815643
H -4.5820481019699934e-05 0.0005467400347254319 -0.0023419430549910907
C -3.156860955239721e-05 -1.9395252547449587e-05 0.00013200963949281118
C -0.00023405834672592728 3.890107644008152e-05 0.0004180933585290094
C -0.00010070159110686979 -0.00017001374483342603 0.00021986794199227842
C -0.00015864685063017892 -0.00024599176599749957 6.954118637099634e-05
C 4.4384356473095786e-05 -0.00020366207583204327 0.00010784985933934651
C 1.0439099500951442e-05 -0.00034804776152242605 -0.00017905975898817973
C -6.898554113045188e-05 0.0002112177006153104 -0.0001492973471625164
H 0.0002756499152901437 0.0016535373040226812 0.0004139929604866634
H 0.0006270215034052955 0.0011092540402386035 -0.0004595535347616094
H -0.0006368875081248965 0.002059528261459998 0.0008596671575842143
H -0.0019615047905920833 0.0008621140112180859 0.00122997643465917
H 0.00010369323688668156 0.0013872574791190316 -0.000576926926353711
