27
units: a.u. (T=300 K) 2020-11-28 13:40:47
F 0.0005498996748396757 4.1996401401481046e-05 2.093031023681064e-05
Si 0.00031291459711734983 -0.0001660478133604809 9.113621240744587e-05
C 7.801926696006854e-05 0.0001796900647973888 -0.0002551955600176185
C 2.517129305349279e-05 1.801970180526938e-05 0.0004246765529579575
C -0.0003882910134144843 -0.0003271814410113909 -0.0004692061828824345
C -0.00023608378735484668 0.0001342712433015367 -2.014550857606477e-05
H -0.0012960978009241729 0.0007461737746520934 0.0014279032293601347
H -0.0003509499755824549 0.0002672015335123238 -0.0002836494429252685
H 0.00019295020941398518 0.00012741518015268116 -0.0010209897554813209
H -0.0003756630946347147 0.00013198482608034446 -0.0006373986061608076
H -0.001282954895682141 0.0019488579027722903 0.001350424140633342
H -0.001637161989138513 0.00016995756244601108 0.0009092617109053536
H -0.0015392406660977678 0.0009909257962506972 0.0002898564452842521
H -0.0010645336355895418 0.001425514892352621 0.00031460183979504006
H -0.0005742538363381678 0.0009735904770585458 0.0003796624119865164
C 0.00013093689693663625 -8.486116888027984e-06 -0.00013021359234564764
C -3.2968860298576653e-05 -0.00017512480568477402 -6.273172404494146e-06
C 0.0002892199945005839 -0.0003418693935820185 0.0002198142080438278
C -0.00028435766460576897 0.0001738253488216582 -0.00027779702874635717
C 0.00022126860361810764 4.835825789797919e-05 -4.200447405744371e-05
C -3.212315810096334e-05 -3.0153823094527642e-05 -7.356117691996899e-05
C -0.00033804008465998324 -0.00025492847619105666 2.02644280469101e-06
H -0.0006100470185298427 0.00039281018927017744 0.0006206904037289359
H -0.00010268363167867958 0.0005296901137430953 -0.0003907069331940962
H -0.0008776730774012409 0.0010570350589711368 -1.5778934032397904e-05
H -0.0010756499226806525 0.0015258662417887594 0.0006985128865506868
H -0.0017320859912426604 0.0005023655064817924 0.0009054254227454864
