0.000000000000000000e+00 3.524173626799195880e+00
7.898542553820449008e-01 3.520240038649410597e+00
1.579708510764089802e+00 3.516527809032583551e+00
2.369562766146135147e+00 3.513005208260128853e+00
3.159417021528179603e+00 3.509684788651971754e+00
3.949271276910224504e+00 3.506552697676543318e+00
4.739125532292270293e+00 3.503612370421675948e+00
5.528979787674313862e+00 3.500889541694951035e+00
6.318834043056359207e+00 3.498417878436542505e+00
7.108688298438404551e+00 3.496237927623041308e+00
7.898542553820449008e+00 3.494375276671404684e+00
8.688396809202496129e+00 3.492864440343627752e+00
9.478251064584540586e+00 3.491715759305842770e+00
1.026810531996658504e+01 3.490922748242743623e+00
1.105795957534862772e+01 3.490472204090915742e+00
1.184781383073067573e+01 3.490344853501072819e+00
1.263766808611271841e+01 3.490521483401334724e+00
1.342752234149476465e+01 3.490990243733833598e+00
1.421737659687680910e+01 3.491733185004090689e+00
1.500723085225885356e+01 3.492704915388575859e+00
1.579708510764089802e+01 3.493850626496363798e+00
1.658693936302294247e+01 3.495147245821839554e+00
1.737679361840499226e+01 3.496589334610191280e+00
1.816664787378703139e+01 3.498179999478761903e+00
1.895650212916908117e+01 3.499920262805254367e+00
1.974635638455112385e+01 3.501815531598102993e+00
2.053621063993317009e+01 3.503881422084425434e+00
2.132606489531521632e+01 3.506120620791181253e+00
2.211591915069725545e+01 3.508536764486182236e+00
2.290577340607930168e+01 3.511129386146925047e+00
2.369562766146135147e+01 3.513884669941282013e+00
2.448548191684339059e+01 3.516797443491389785e+00
2.527533617222543683e+01 3.519856225458741328e+00
2.606519042760748306e+01 3.523054196955488049e+00
2.685504468298952929e+01 3.526369502537229028e+00
2.764489893837157553e+01 3.529740903933114016e+00
2.843475319375361821e+01 3.533084129768077286e+00
2.922460744913566444e+01 3.536319961968046321e+00
3.001446170451770712e+01 3.539373929409642017e+00
3.080431595989974980e+01 3.542172483352442836e+00
3.159417021528179603e+01 3.544634300536891658e+00
3.238402447066384582e+01 3.546704149188566912e+00
3.317387872604588495e+01 3.548353325521527601e+00
3.396373298142793118e+01 3.549552212396484663e+00
3.475358723680998452e+01 3.550281161194364543e+00
3.554344149219202365e+01 3.550546519947562096e+00
3.633329574757406277e+01 3.550356198393259444e+00
3.712315000295611611e+01 3.549735799296887873e+00
3.791300425833816234e+01 3.548716194743414043e+00
3.870285851372020147e+01 3.547354708508095644e+00
3.949271276910224771e+01 3.545714956501552884e+00
4.028256702448429394e+01 3.543855621716523796e+00
4.107242127986634017e+01 3.541841145843175997e+00
4.186227553524837930e+01 3.539751378092288903e+00
4.265212979063043264e+01 3.537658972682796943e+00
4.344198404601247177e+01 3.535632442810891174e+00
4.423183830139451089e+01 3.533728752474782464e+00
4.502169255677656423e+01 3.531997101590611976e+00
4.581154681215860336e+01 3.530490963904297175e+00
4.660140106754064959e+01 3.529246495365522485e+00
4.739125532292270293e+01 3.528283545627612927e+00
4.818110957830474206e+01 3.527609668824913669e+00
4.897096383368678119e+01 3.527241821682485234e+00
4.976081808906882742e+01 3.527184345896971163e+00
5.055067234445087365e+01 3.527420250583265471e+00
5.134052659983291278e+01 3.527924229263359912e+00
5.213038085521496612e+01 3.528689485592077180e+00
5.292023511059701946e+01 3.529693561534392288e+00
5.371008936597905858e+01 3.530884584800060289e+00
5.449994362136109771e+01 3.532205999166070587e+00
5.528979787674315105e+01 3.533586909366244200e+00
5.607965213212519018e+01 3.534964709744281119e+00
5.686950638750723641e+01 3.536256487536499460e+00
5.765936064288928975e+01 3.537372291407355540e+00
5.844921489827132888e+01 3.538229256454233695e+00
5.923906915365336801e+01 3.538772948992047418e+00
6.002892340903541424e+01 3.538989615684103196e+00
6.081877766441746047e+01 3.538840881575464170e+00
6.160863191979949960e+01 3.538293284713684095e+00
6.239848617518155294e+01 3.537328128848971076e+00
6.318834043056359207e+01 3.535925082274715248e+00
6.397819468594563830e+01 3.534082828106501317e+00
6.476804894132769164e+01 3.531815906969841379e+00
6.555790319670973076e+01 3.529146179361374980e+00
6.634775745209176989e+01 3.526104785589148971e+00
6.713761170747382323e+01 3.522754176772622703e+00
6.792746596285586236e+01 3.519174148324818230e+00
6.871732021823791570e+01 3.515453958186951056e+00
6.950717447361996904e+01 3.511693535397940380e+00
7.029702872900199395e+01 3.508000495975841737e+00
7.108688298438404729e+01 3.504475619153229804e+00
7.187673723976610063e+01 3.501205194318592895e+00
7.266659149514812555e+01 3.498258014849565889e+00
7.345644575053017888e+01 3.495687496059743271e+00
7.424630000591223222e+01 3.493536953673323620e+00
7.503615426129427135e+01 3.491846219008661656e+00
7.582600851667632469e+01 3.490652214338862080e+00
7.661586277205834961e+01 3.489963729571805118e+00
7.740571702744040294e+01 3.489782400238066185e+00
7.819557128282244207e+01 3.490114044470603361e+00
7.898542553820449541e+01 3.490957219072490236e+00
7.977527979358653454e+01 3.492301116129093774e+00
8.056513404896858788e+01 3.494133229575818955e+00
8.135498830435062700e+01 3.496460301378568669e+00
8.214484255973268034e+01 3.499286670482001149e+00
8.293469681511473368e+01 3.502600335936698173e+00
8.372455107049675860e+01 3.506387924383497889e+00
8.451440532587881194e+01 3.510616288267228491e+00
8.530425958126086527e+01 3.515234049165726571e+00
8.609411383664289019e+01 3.520204718358782792e+00
8.688396809202494353e+01 3.525520373422417197e+00
8.767382234740699687e+01 3.531174537435679106e+00
8.846367660278902179e+01 3.537148071781642145e+00
8.925353085817107512e+01 3.543413024483140106e+00
9.004338511355312846e+01 3.549923774246567021e+00
9.083323936893515338e+01 3.556623274746269381e+00
9.162309362431720672e+01 3.563483568278313030e+00
9.241294787969926006e+01 3.570493777634499377e+00
9.320280213508129918e+01 3.577621689992987353e+00
9.399265639046335252e+01 3.584822785659589783e+00
9.478251064584540586e+01 3.592056438305065047e+00
9.557236490122744499e+01 3.599270084438180195e+00
9.636221915660948412e+01 3.606384501350591520e+00
9.715207341199152324e+01 3.613308873664655252e+00
9.794192766737356237e+01 3.619970527003048222e+00
9.873178192275561571e+01 3.626301965423819773e+00
9.952163617813765484e+01 3.632246822256754104e+00
1.003114904335197082e+02 3.637747810595165721e+00
1.011013446889017473e+02 3.642755853467912086e+00
1.018911989442837864e+02 3.647216988652737246e+00
1.026810531996658256e+02 3.651077550318644782e+00
1.034709074550478789e+02 3.654321543284324125e+00
1.042607617104299322e+02 3.656934977942110088e+00
1.050506159658119856e+02 3.658907232424336797e+00
1.058404702211940389e+02 3.660251405314487450e+00
1.066303244765760638e+02 3.660986131612160577e+00
1.074201787319581172e+02 3.661130298673664907e+00
1.082100329873401563e+02 3.660701105388754595e+00
1.089998872427221954e+02 3.659715901918945580e+00
1.097897414981042488e+02 3.658184937812629656e+00
1.105795957534863021e+02 3.656135406835165913e+00
1.113694500088683270e+02 3.653581675241616811e+00
1.121593042642503804e+02 3.650527567569199050e+00
1.129491585196324195e+02 3.646980129097937340e+00
1.137390127750144728e+02 3.642951465359538066e+00
1.145288670303965262e+02 3.638493473728058092e+00
1.153187212857785795e+02 3.633672814982543020e+00
1.161085755411606044e+02 3.628560538986504991e+00
1.168984297965426578e+02 3.623228770337066695e+00
1.176882840519246827e+02 3.617741345273407294e+00
1.184781383073067360e+02 3.612179306458533912e+00
1.192679925626887893e+02 3.606631449277512225e+00
1.200578468180708285e+02 3.601179523209406597e+00
1.208477010734528676e+02 3.595912357495175904e+00
1.216375553288349209e+02 3.590930787638852095e+00
1.224274095842169459e+02 3.586336388031319267e+00
1.232172638395989992e+02 3.582211063051815358e+00
1.240071180949810525e+02 3.578654439240402940e+00
1.247969723503631059e+02 3.575758344328990646e+00
1.255868266057451592e+02 3.573618092540804980e+00
1.263766808611271841e+02 3.572299129127142869e+00
1.271665351165092517e+02 3.571854225368741975e+00
1.279563893718912766e+02 3.572344436790990230e+00
1.287462436272733157e+02 3.573820024614599244e+00
1.295360978826553833e+02 3.576306960679775049e+00
1.303259521380374224e+02 3.579811444860399927e+00
1.311158063934194615e+02 3.584297832619151247e+00
1.319056606488015291e+02 3.589693687162540670e+00
1.326955149041835398e+02 3.595919842711589265e+00
1.334853691595655789e+02 3.602908133535550839e+00
1.342752234149476465e+02 3.610562498416626021e+00
1.350650776703296856e+02 3.618760012111858604e+00
1.358549319257117247e+02 3.627415196728290603e+00
1.366447861810937638e+02 3.636460439025773539e+00
1.374346404364758314e+02 3.645824401537910653e+00
1.382244946918578705e+02 3.655441674290297982e+00
1.390143489472399381e+02 3.665251350267435537e+00
1.398042032026219488e+02 3.675193808475667900e+00
1.405940574580039879e+02 3.685232157595458968e+00
1.413839117133860555e+02 3.695337206231222194e+00
1.421737659687680946e+02 3.705475044743641977e+00
1.429636202241501337e+02 3.715599783417611324e+00
1.437534744795322013e+02 3.725645304467883001e+00
1.445433287349142120e+02 3.735556108876050274e+00
1.453331829902962511e+02 3.745264252628428991e+00
1.461230372456783186e+02 3.754702419878467090e+00
1.469128915010603578e+02 3.763801364096247326e+00
1.477027457564423969e+02 3.772506184179698518e+00
1.484926000118244644e+02 3.780783175906524018e+00
1.492824542672065036e+02 3.788623847099182651e+00
1.500723085225885427e+02 3.796042520768374562e+00
1.508621627779705818e+02 3.803074746478199764e+00
1.516520170333526494e+02 3.809765834351591440e+00
1.524418712887346601e+02 3.816162747556552493e+00
1.532317255441166992e+02 3.822290035422356347e+00
1.540215797994987668e+02 3.828172456471816254e+00
1.548114340548808059e+02 3.833857482281330498e+00
1.556012883102628450e+02 3.839399709032472963e+00
1.563911425656448841e+02 3.844862266998990918e+00
1.571809968210269517e+02 3.850286504717272962e+00
1.579708510764089908e+02 3.855710493496816937e+00
1.587607053317910584e+02 3.861178441859771659e+00
1.595505595871730691e+02 3.866718987610862523e+00
1.603404138425551082e+02 3.872374400159050989e+00
1.611302680979371758e+02 3.878179530380118312e+00
1.619201223533191865e+02 3.884167402915540190e+00
1.627099766087012540e+02 3.890351169879170179e+00
1.634998308640832931e+02 3.896741592977358781e+00
1.642896851194653607e+02 3.903334990310549646e+00
1.650795393748473998e+02 3.910114452138263363e+00
1.658693936302294674e+02 3.917038174349247281e+00
1.666592478856114781e+02 3.924051690519574809e+00
1.674491021409935172e+02 3.931098273846060920e+00
1.682389563963755847e+02 3.938135903355846512e+00
1.690288106517576239e+02 3.945156682903958156e+00
1.698186649071396630e+02 3.952174788895368440e+00
1.706085191625217305e+02 3.959213621986685361e+00
1.713983734179037697e+02 3.966302880737493375e+00
1.721882276732857804e+02 3.973470968380095503e+00
1.729780819286678479e+02 3.980745884196485562e+00
1.737679361840498871e+02 3.988152949946212722e+00
1.745577904394319262e+02 3.995690531273090595e+00
1.753476446948139937e+02 4.003338606645527875e+00
1.761374989501960044e+02 4.011077936809573252e+00
1.769273532055780436e+02 4.018870318245358675e+00
1.777172074609601111e+02 4.026658796702739629e+00
1.785070617163421502e+02 4.034377622437635758e+00
1.792969159717241894e+02 4.041952335105897909e+00
1.800867702271062569e+02 4.049302290451464614e+00
1.808766244824882961e+02 4.056353140040603655e+00
1.816664787378703068e+02 4.063043735681518775e+00
1.824563329932523743e+02 4.069345867555155039e+00
1.832461872486344134e+02 4.075238100698672206e+00
1.840360415040164810e+02 4.080705326919717990e+00
1.848258957593985201e+02 4.085747488377029946e+00
1.856157500147805877e+02 4.090365500505013685e+00
1.864056042701625984e+02 4.094544871274914399e+00
1.871954585255446659e+02 4.098231207151952660e+00
1.879853127809267050e+02 4.101353255762566263e+00
1.887751670363087442e+02 4.103818296876021954e+00
1.895650212916908117e+02 4.105511328483371081e+00
1.903548755470728508e+02 4.106319818006379130e+00
1.911447298024548900e+02 4.106156046144425531e+00
1.919345840578369007e+02 4.104952261240788935e+00
1.927244383132189682e+02 4.102674097430689670e+00
1.935142925686010074e+02 4.099305295104003655e+00
1.943041468239830465e+02 4.094783487892244445e+00
1.950940010793651140e+02 4.088976163731075530e+00
1.958838553347471247e+02 4.081692663134068866e+00
1.966737095901291639e+02 4.072729382204816950e+00
1.974635638455112314e+02 4.061916636738013509e+00
1.982534181008932705e+02 4.049155688363503813e+00
1.990432723562753097e+02 4.034452157891209367e+00
1.998331266116573772e+02 4.017892741573229287e+00
2.006229808670394164e+02 3.999621847790618023e+00
2.014128351224214271e+02 3.979828782483703531e+00
2.022026893778034946e+02 3.958738196544228760e+00
2.029925436331855337e+02 3.936591989013758841e+00
2.037823978885675729e+02 3.913655114318131290e+00
2.045722521439496404e+02 3.890182105385110667e+00
2.053621063993316511e+02 3.866414779578928318e+00
2.061519606547137187e+02 3.842576090698272662e+00
2.069418149100957578e+02 3.818870898300873229e+00
2.077316691654778253e+02 3.795460904256807932e+00
2.085215234208598645e+02 3.772483716509508422e+00
2.093113776762419320e+02 3.750050310644803542e+00
2.101012319316239711e+02 3.728255295594318230e+00
2.108910861870060103e+02 3.707189683659005919e+00
2.116809404423880778e+02 3.686973709268062560e+00
2.124707946977700885e+02 3.667748026960092389e+00
2.132606489531521277e+02 3.649671384114425265e+00
2.140505032085341952e+02 3.632910229093575527e+00
2.148403574639162343e+02 3.617582220639041335e+00
2.156302117192982450e+02 3.603753636585952602e+00
2.164200659746803126e+02 3.591424710656917263e+00
2.172099202300623517e+02 3.580562070868043012e+00
2.179997744854443908e+02 3.571104891953994276e+00
2.187896287408264584e+02 3.562949686737778787e+00
2.195794829962084975e+02 3.555975991590628826e+00
2.203693372515905367e+02 3.550061928530887645e+00
2.211591915069726042e+02 3.545098647018297466e+00
2.219490457623546149e+02 3.541024607092357890e+00
2.227389000177366540e+02 3.537800571899168744e+00
2.235287542731187216e+02 3.535415818823193668e+00
2.243186085285007607e+02 3.533869988144325625e+00
2.251084627838827714e+02 3.533120170978179431e+00
2.258983170392648390e+02 3.533089547512439754e+00
2.266881712946468781e+02 3.533713628504857596e+00
2.274780255500289456e+02 3.534930817253719493e+00
2.282678798054109848e+02 3.536657540618568962e+00
2.290577340607930523e+02 3.538763893634574664e+00
2.298475883161750914e+02 3.541072657342887897e+00
2.306374425715571590e+02 3.543380320584863075e+00
2.314272968269391981e+02 3.545527363382272590e+00
2.322171510823212088e+02 3.547422059020080898e+00
2.330070053377032764e+02 3.549044736065904093e+00
2.337968595930853155e+02 3.550457787564799794e+00
2.345867138484673546e+02 3.551780301388149486e+00
2.353765681038493653e+02 3.553176652201575081e+00
2.361664223592314329e+02 3.554844451198526212e+00
2.369562766146134720e+02 3.556967134949001519e+00
2.377461308699955111e+02 3.559707691139431862e+00
2.385359851253775787e+02 3.563199134644358335e+00
2.393258393807596178e+02 3.567515202522467010e+00
2.401156936361416570e+02 3.572696500351847160e+00
2.409055478915237245e+02 3.578760038189486625e+00
2.416954021469057352e+02 3.585693714460510773e+00
2.424852564021910268e+02 3.593481193138220675e+00
2.432751106577665894e+02 3.602066846236832376e+00
2.440649649131002548e+02 3.611349990750155392e+00
2.448548191684338917e+02 3.621209901995964930e+00
2.456446734237676139e+02 3.631519532679059470e+00
2.464345276791012793e+02 3.642181423916829086e+00
2.472243819346768134e+02 3.653149029944350090e+00
2.480142361900104788e+02 3.664360142749506721e+00
2.488040904453441726e+02 3.675732082100063636e+00
2.495939447006778096e+02 3.687137824840979849e+00
2.503837989560115034e+02 3.698424999722083495e+00
2.511736532115870375e+02 3.709453662987651779e+00
2.519635074669207313e+02 3.720102318525284613e+00
2.527533617222543683e+02 3.730257766639823114e+00
2.535432159775880336e+02 3.739806637549379253e+00
2.543330702329216990e+02 3.748676817795296046e+00
2.551229244884972900e+02 3.756840550176727689e+00
2.559127787438309554e+02 3.764289374474764749e+00
2.567026329991646207e+02 3.771029709051376244e+00
2.574924872544982577e+02 3.777068209618027250e+00
2.582823415098318947e+02 3.782399941919914799e+00
2.590721957654075140e+02 3.786992034223284342e+00
2.598620500207411510e+02 3.790809109034354307e+00
2.606519042760748448e+02 3.793839153938348030e+00
2.614417585314084818e+02 3.796025121475998798e+00
2.622316127867421756e+02 3.797296020373025716e+00
2.630214670423177381e+02 3.797628600144865807e+00
2.638113212976513751e+02 3.797053328682476359e+00
2.646011755529850689e+02 3.795613866686398108e+00
2.653910298083187058e+02 3.793399980143578265e+00
2.661808840636523996e+02 3.790547254910261010e+00
2.669707383192279622e+02 3.787202909253374550e+00
2.677605925745615991e+02 3.783538301384178570e+00
2.685504468298952929e+02 3.779732638690568081e+00
2.693403010852289299e+02 3.775955677499421625e+00
2.701301553405626237e+02 3.772289945541038581e+00
2.709200095961381862e+02 3.768749723747740532e+00
2.717098638514718232e+02 3.765376904625754584e+00
2.724997181068055170e+02 3.762245610534846296e+00
2.732895723621391539e+02 3.759459805822815692e+00
2.740794266174728477e+02 3.757140389001429437e+00
2.748692808730484103e+02 3.755406580146055440e+00
2.756591351283821041e+02 3.754343849964684843e+00
2.764489893837157410e+02 3.753975437942377091e+00
2.772388436390493780e+02 3.754275417461607756e+00
2.780286978943830718e+02 3.755179836687987827e+00
2.788185521499586343e+02 3.756581333143173218e+00
2.796084064052923281e+02 3.758363988712464909e+00
2.803982606606259651e+02 3.760427049785315834e+00
2.811881149159596589e+02 3.762674792069765406e+00
2.819779691712932959e+02 3.765052624322734687e+00
2.827678234268688584e+02 3.767581871902778712e+00
2.835576776822024954e+02 3.770316236366528351e+00
2.843475319375361892e+02 3.773309219583402374e+00
2.851373861928698261e+02 3.776618208827533074e+00
2.859272404482035199e+02 3.780311676354034311e+00
2.867170947037790825e+02 3.784455206803549299e+00
2.875069489591127194e+02 3.789103593967423134e+00
2.882968032144464132e+02 3.794299127161107954e+00
2.890866574697800502e+02 3.800081912960748820e+00
2.898765117251137440e+02 3.806480660536740057e+00
2.906663659806893065e+02 3.813494125382993261e+00
2.914562202360229435e+02 3.821076769289263098e+00
2.922460744913566373e+02 3.829154025013504103e+00
2.930359287466902742e+02 3.837649235305935491e+00
2.938257830020239680e+02 3.846484557740845744e+00
2.946156372575995306e+02 3.855572345245165788e+00
2.954054915129331675e+02 3.864834758517813551e+00
2.961953457682668613e+02 3.874216432872329641e+00
2.969852000236004983e+02 3.883660699453018506e+00
2.977750542789341353e+02 3.893089492970803978e+00
2.985649085345097546e+02 3.902409535438714716e+00
2.993547627898434484e+02 3.911552032339150831e+00
3.001446170451770854e+02 3.920449838433127443e+00
3.009344713005107224e+02 3.929022544138605078e+00
3.017243255558444162e+02 3.937186023820362646e+00
3.025141798114199787e+02 3.944881641852389986e+00
3.033040340667536157e+02 3.952106471949938804e+00
3.040938883220873095e+02 3.958915647873464838e+00
3.048837425774210033e+02 3.965390526067155808e+00
3.056735968327546402e+02 3.971586555153499898e+00
3.064634510883302028e+02 3.977504265367511671e+00
3.072533053436638397e+02 3.983128780894393373e+00
3.080431595989975335e+02 3.988430063077819554e+00
3.088330138543311705e+02 3.993379053649165566e+00
3.096228681096648643e+02 3.997967993134603937e+00
3.104127223652404268e+02 4.002160975946371657e+00
3.112025766205740638e+02 4.005894274667030075e+00
3.119924308759077576e+02 4.009112064911445117e+00
3.127822851312413945e+02 4.011757766134540937e+00
3.135721393865750883e+02 4.013750927714200500e+00
3.143619936421506509e+02 4.015021123864696229e+00
3.151518478974843447e+02 4.015552720825778188e+00
3.159417021528179816e+02 4.015391981790692455e+00
3.167315564081516186e+02 4.014636450991002192e+00
3.175214106634853124e+02 4.013394839266377190e+00
3.183112649190608749e+02 4.011787659374168591e+00
3.191011191743945687e+02 4.009929055409427789e+00
3.198909734297282057e+02 4.007905715174817196e+00
3.206808276850618995e+02 4.005819220093319366e+00
3.214706819403955365e+02 4.003779894614664769e+00
3.222605361959710990e+02 4.001892835343523025e+00
3.230503904513047928e+02 4.000234652266843938e+00
3.238402447066383729e+02 3.998894411915481673e+00
3.246300989619721236e+02 3.997964272019346232e+00
3.254199532173057605e+02 3.997533931917875982e+00
3.262098074728812662e+02 3.997674690009343390e+00
3.269996617282149600e+02 3.998416050916428599e+00
3.277895159835486538e+02 3.999745683257281303e+00
3.285793702388822339e+02 4.001630295760800315e+00
3.293692244942160414e+02 4.004043882308298663e+00
3.301590787497915471e+02 4.006975404925446682e+00
3.309489330051251841e+02 4.010410821229458023e+00
3.317387872604589347e+02 4.014298919170357749e+00
3.325286415157925148e+02 4.018592456897793319e+00
3.333184957711262086e+02 4.023284152074791287e+00
3.341083500267017712e+02 4.028382088021694507e+00
3.348982042820354081e+02 4.033872127182754674e+00
3.356880585373691019e+02 4.039730399788311388e+00
3.364779127927027957e+02 4.045932982529970801e+00
3.372677670480364895e+02 4.052481993483725731e+00
3.380576213036119384e+02 4.059398050332489127e+00
3.388474755589456890e+02 4.066717772684685706e+00
3.396373298142793260e+02 4.074481896890470800e+00
3.404271840696129630e+02 4.082737116108545727e+00
3.412170383249465999e+02 4.091499622976637163e+00
3.420068925805222193e+02 4.100747057574301913e+00
3.427967468358559131e+02 4.110470400049105244e+00
3.435866010911894932e+02 4.120676486841153618e+00
3.443764553465232439e+02 4.131341966832284385e+00
3.451663096018568808e+02 4.142396591115943494e+00
3.459561638574324434e+02 4.153768013589578700e+00
3.467460181127660803e+02 4.165395766917750819e+00
3.475358723680997741e+02 4.177232682167674405e+00
3.483257266234334679e+02 4.189211190441207044e+00
3.491155808787671049e+02 4.201234791858758477e+00
3.499054351343426674e+02 4.213208049187395332e+00
3.506952893896763044e+02 4.225047017349173650e+00
3.514851436450100550e+02 4.236656891297739591e+00
3.522749979003436351e+02 4.247999086606013996e+00
3.530648521556773289e+02 4.259092911713195484e+00
3.538547064112528915e+02 4.269997078657828737e+00
3.546445606665865853e+02 4.280759057730367800e+00
3.554344149219202222e+02 4.291404685410662445e+00
3.562242691772539160e+02 4.301922174047066783e+00
3.570141234325876098e+02 4.312274415935926086e+00
3.578039776881630587e+02 4.322421532923297782e+00
3.585938319434967525e+02 4.332339560246437848e+00
3.593836861988304463e+02 4.342041175595118041e+00
3.601735404541641401e+02 4.351559407303224880e+00
3.609633947094977771e+02 4.360887530207638640e+00
3.617532489650733396e+02 4.369945459025728951e+00
3.625431032204070334e+02 4.378616071676430188e+00
3.633329574757406135e+02 4.386798246373541765e+00
3.641228117310743642e+02 4.394380395540411044e+00
3.649126659864080011e+02 4.401242650782537957e+00
3.657025202419835068e+02 4.407289331382063580e+00
3.664923744973173143e+02 4.412447286045623862e+00
3.672822287526508944e+02 4.416627297761205106e+00
3.680720830079845882e+02 4.419752021625024341e+00
3.688619372633182820e+02 4.421766246695622016e+00
3.696517915188937877e+02 4.422663349362744967e+00
3.704416457742274247e+02 4.422487469543415095e+00
3.712315000295611753e+02 4.421292277959798511e+00
3.720213542848947554e+02 4.419102826582616217e+00
3.728112085402284492e+02 4.415922385146751949e+00
3.736010627958040686e+02 4.411799409666581795e+00
3.743909170511376487e+02 4.406847201790878188e+00
3.751807713064713425e+02 4.401200375486126859e+00
3.759706255618049795e+02 4.394958408162332297e+00
3.767604798171387301e+02 4.388213880978758752e+00
3.775503340727141790e+02 4.381070959480606319e+00
3.783401883280478728e+02 4.373594086787865542e+00
3.791300425833816234e+02 4.365809243723425048e+00
3.799198968387152036e+02 4.357751073841252598e+00
3.807097510940488974e+02 4.349465813615854159e+00
3.814996053496244599e+02 4.341007256271317338e+00
3.822894596049581537e+02 4.332404982341681254e+00
3.830793138602917338e+02 4.323669647291358054e+00
3.838691681156254845e+02 4.314784703987775139e+00
3.846590223709591214e+02 4.305696702638359241e+00
3.854488766265346840e+02 4.296352051730636390e+00
3.862387308818683778e+02 4.286680822539295832e+00
3.870285851372020147e+02 4.276624728780519469e+00
3.878184393925357085e+02 4.266173252385377701e+00
3.886082936478693455e+02 4.255340883107004757e+00
3.893981479034449080e+02 4.244137544966513964e+00
3.901880021587785450e+02 4.232556895219675930e+00
3.909778564141122956e+02 4.220618947234989982e+00
3.917677106694459326e+02 4.208348843051108013e+00
3.925575649247795695e+02 4.195785242028426509e+00
3.933474191803551321e+02 4.182982449597036023e+00
3.941372734356888259e+02 4.170007110551010143e+00
3.949271276910224628e+02 4.156880670650697773e+00
3.957169819463560998e+02 4.143589004618829286e+00
3.965068362016898504e+02 4.130135835794936483e+00
3.972966904572652993e+02 4.116539242718305402e+00
3.980865447125989931e+02 4.102818838608339291e+00
3.988763989679327437e+02 4.089001614909057558e+00
3.996662532232663807e+02 4.075140464467579271e+00
4.004561074786000177e+02 4.061298533377648567e+00
4.012459617341755802e+02 4.047539374342013829e+00
4.020358159895092740e+02 4.033911816888710256e+00
4.028256702448428541e+02 4.020445620180513657e+00
4.036155245001766048e+02 4.007200443079594443e+00
4.044053787555102986e+02 3.994296350382557481e+00
4.051952330110857474e+02 3.981866511748326953e+00
4.059850872664195549e+02 3.970020390582348568e+00
4.067749415217531350e+02 3.958824741716480133e+00
4.075647957770868288e+02 3.948323001400282806e+00
4.083546500324205226e+02 3.938540493611983440e+00
4.091445042879960283e+02 3.929473607372514721e+00
4.099343585433296653e+02 3.921094985833489144e+00
4.107242127986633022e+02 3.913367544022744671e+00
4.115140670539971097e+02 3.906229485512505484e+00
4.123039213093306898e+02 3.899598731266876950e+00
4.130937755649062524e+02 3.893415262621648054e+00
4.138836298202398893e+02 3.887642549549940263e+00
4.146734840755735831e+02 3.882214239069377459e+00
4.154633383309072201e+02 3.877045894163608786e+00
4.162531925862409707e+02 3.872052724426385595e+00
4.170430468418164764e+02 3.867137320340507056e+00
4.178329010971501134e+02 3.862151932102422691e+00
4.186227553524838640e+02 3.856955710939070414e+00
4.194126096078174442e+02 3.851405716732287488e+00
4.202024638631511380e+02 3.845353515065487393e+00
4.209923181187267005e+02 3.838656532168021052e+00
4.217821723740603943e+02 3.831188075338954224e+00
4.225720266293940313e+02 3.822877035153822156e+00
4.233618808847277251e+02 3.813711031434829923e+00
4.241517351400614189e+02 3.803705427212203283e+00
4.249415893956369246e+02 3.792879886018003077e+00
4.257314436509706184e+02 3.781244826682423010e+00
4.265212979063042553e+02 3.768815637128845264e+00
4.273111521616379491e+02 3.755619628564190293e+00
4.281010064169715292e+02 3.741690449381513073e+00
4.288908606725471486e+02 3.727063007811606710e+00
4.296807149278808424e+02 3.711758313137297094e+00
4.304705691832144794e+02 3.695814763731124941e+00
4.312604234385481732e+02 3.679327989212379357e+00
4.320502776938818101e+02 3.662370872242939779e+00
4.328401319494573727e+02 3.645017884522471441e+00
4.336299862047910665e+02 3.627375848742679487e+00
4.344198404601247034e+02 3.609614920454975895e+00
4.352096947154583972e+02 3.591948408058735165e+00
4.359995489707920910e+02 3.574629342946806343e+00
4.367894032263676536e+02 3.557894934806556275e+00
4.375792574817012337e+02 3.541991389672241475e+00
4.383691117370349843e+02 3.527192243215675926e+00
4.391589659923686213e+02 3.513737071807581103e+00
4.399488202477022583e+02 3.501785008976106006e+00
4.407386745032778208e+02 3.491405459408354783e+00
4.415285287586115146e+02 3.482640466651254485e+00
4.423183830139452084e+02 3.475523747225250926e+00
4.431082372692788454e+02 3.470078292575236922e+00
4.438980915246125392e+02 3.466268086652914082e+00
4.446879457801879880e+02 3.464003378168398761e+00
4.454778000355216818e+02 3.463170725088793755e+00
4.462676542908553756e+02 3.463645658712278586e+00
4.470575085461890694e+02 3.465270329547019745e+00
4.478473628015227632e+02 3.467874793770791442e+00
4.486372170570982689e+02 3.471284245264214974e+00
4.494270713124319627e+02 3.475299427658503415e+00
4.502169255677655428e+02 3.479704383932765932e+00
4.510067798230993503e+02 3.484323176793752364e+00
4.517966340784329304e+02 3.489015634391413823e+00
4.525864883340084930e+02 3.493659557293307127e+00
4.533763425893421299e+02 3.498186525271879788e+00
4.541661968446758237e+02 3.502537067279194893e+00
4.549560511000095175e+02 3.506671207547588764e+00
4.557459053553432113e+02 3.510574775983795082e+00
4.565357596109187170e+02 3.514245630030623513e+00
4.573256138662523540e+02 3.517712033094426705e+00
4.581154681215861046e+02 3.521038955620149569e+00
4.589053223769196848e+02 3.524262417582328943e+00
4.596951766322533786e+02 3.527396386287541041e+00
4.604850308878289979e+02 3.530453164003601874e+00
4.612748851431626349e+02 3.533475322719997092e+00
4.620647393984962719e+02 3.536558963056589899e+00
4.628545936538299088e+02 3.539815548791651167e+00
4.636444479091636595e+02 3.543343557241281250e+00
4.644343021647391652e+02 3.547273166379311782e+00
4.652241564200728021e+02 3.551752595071021812e+00
4.660140106754065528e+02 3.556911173847708163e+00
4.668038649307401897e+02 3.562852991296486582e+00
4.675937191860738267e+02 3.569648728741893429e+00
4.683835734416493892e+02 3.577316087594212046e+00
4.691734276969830830e+02 3.585840059873083074e+00
4.699632819523167200e+02 3.595207763343235108e+00
4.707531362076504138e+02 3.605394685116908082e+00
4.715429904629840507e+02 3.616340576763970471e+00
4.723328447185596133e+02 3.627954065873050027e+00
4.731226989738933639e+02 3.640122271623208228e+00
4.739125532292269440e+02 3.652711006989615594e+00
4.747024074845606378e+02 3.665597271038056437e+00
4.754922617398943316e+02 3.678698434554216412e+00
4.762821159954698942e+02 3.691955703308438697e+00
4.770719702508034743e+02 3.705301134016245168e+00
4.778618245061372249e+02 3.718689543397204922e+00
4.786516787614709187e+02 3.732083340569115837e+00
4.794415330168044989e+02 3.745424325334198556e+00
4.802313872723800614e+02 3.758673037068231082e+00
4.810212415277137552e+02 3.771829770318837927e+00
4.818110957830474490e+02 3.784900095005299114e+00
4.826009500383810291e+02 3.797942606134093957e+00
4.833908042937147798e+02 3.811078023701249151e+00
4.841806585492902286e+02 3.824449994084146986e+00
4.849705128046239224e+02 3.838194112596793772e+00
4.857603670599576731e+02 3.852415251131392715e+00
4.865502213152913100e+02 3.867184604871337861e+00
4.873400755706250038e+02 3.882511876997661204e+00
4.881299298262005095e+02 3.898370237707820873e+00
4.889197840815342033e+02 3.914714236780036494e+00
4.897096383368677834e+02 3.931466908200307309e+00
4.904994925922015909e+02 3.948534386305544874e+00
4.912893468475352279e+02 3.965825909718832865e+00
4.920792011031107336e+02 3.983285082745749328e+00
4.928690553584444842e+02 4.000928322464559983e+00
4.936589096137780643e+02 4.018788945287252723e+00
4.944487638691117581e+02 4.036845642366737152e+00
4.952386181244454519e+02 4.055015876560219112e+00
4.960284723800209576e+02 4.073199789685727268e+00
4.968183266353545946e+02 4.091287031096829452e+00
4.976081808906883452e+02 4.109193002822498997e+00
4.983980351460220390e+02 4.126829156048939851e+00
4.991878894013556192e+02 4.144087688510541767e+00
4.999777436569311817e+02 4.160882809707519669e+00
5.007675979122649323e+02 4.177162084453565072e+00
5.015574521675985125e+02 4.192863472509407607e+00
5.023473064229321494e+02 4.207912994074680668e+00
5.031371606782658432e+02 4.222264521188220598e+00
5.039270149338414626e+02 4.235910131611391627e+00
5.047168691891750427e+02 4.248892797790378317e+00
5.055067234445087365e+02 4.261266842067518823e+00
5.062965776998424872e+02 4.273040696811908568e+00
5.070864319551760673e+02 4.284170023387100734e+00
5.078762862107516298e+02 4.294612648429425583e+00
5.086661404660852668e+02 4.304344407324673050e+00
5.094559947214190174e+02 4.313339176167958477e+00
5.102458489767526544e+02 4.321606452543459653e+00
5.110357032320862913e+02 4.329224201726813881e+00
5.118255574876619107e+02 4.336292462183179985e+00
5.126154117429955477e+02 4.342896321756333222e+00
5.134052659983292415e+02 4.349131532328159189e+00
5.141951202536628216e+02 4.355143305912941187e+00
5.149849745089965154e+02 4.361117621522303089e+00
5.157748287645721348e+02 4.367235885109970184e+00
5.165646830199057149e+02 4.373677827924152162e+00
5.173545372752394087e+02 4.380592881033125607e+00
5.181443915305731025e+02 4.388054296748597594e+00
5.189342457859067963e+02 4.396091081781227317e+00
5.197241000414823020e+02 4.404741661555639176e+00
5.205139542968161095e+02 4.414087571455754144e+00
5.213038085521496896e+02 4.424226016459913424e+00
5.220936628074832697e+02 4.435185036979334861e+00
5.228835170628169635e+02 4.446920083557865055e+00
5.236733713183925829e+02 4.459356092446058462e+00
5.244632255737261630e+02 4.472417947621740275e+00
5.252530798290598568e+02 4.486025110245895675e+00
5.260429340843936643e+02 4.500045081104526723e+00
5.268327883397272444e+02 4.514329317546332376e+00
5.276226425953027501e+02 4.528708225910546226e+00
5.284124968506365576e+02 4.542981763599795997e+00
5.292023511059701377e+02 4.556941969737362541e+00
5.299922053613038315e+02 4.570406344836428936e+00
5.307820596166374116e+02 4.583222843481259190e+00
5.315719138722130310e+02 4.595280004386971484e+00
5.323617681275466111e+02 4.606482013628482974e+00
5.331516223828803049e+02 4.616711075089380500e+00
5.339414766382138851e+02 4.625907406373665154e+00
5.347313308935476925e+02 4.634060385472459132e+00
5.355211851491231982e+02 4.641170860274614896e+00
5.363110394044567784e+02 4.647217150233566407e+00
5.371008936597905858e+02 4.652127536391181373e+00
5.378907479151242796e+02 4.655843130327091295e+00
5.386806021704578598e+02 4.658343083532361817e+00
5.394704564260334791e+02 4.659648007190813068e+00
5.402603106813671729e+02 4.659814431636376320e+00
5.410501649367007531e+02 4.658918666850714096e+00
5.418400191920343332e+02 4.657081088991048112e+00
5.426298734473681407e+02 4.654438384077146829e+00
5.434197277029436464e+02 4.651125458693671000e+00
5.442095819582773402e+02 4.647284156521449994e+00
5.449994362136110340e+02 4.643069872208370974e+00
5.457892904689447278e+02 4.638654214321944025e+00
5.465791447242783079e+02 4.634200181479765313e+00
5.473689989798539273e+02 4.629851571157907131e+00
5.481588532351876211e+02 4.625709049800714290e+00
5.489487074905212012e+02 4.621863582541238635e+00
5.497385617458548950e+02 4.618397385333286920e+00
5.505284160011885888e+02 4.615346984942437558e+00
5.513182702567642082e+02 4.612721127695344592e+00
5.521081245120977883e+02 4.610534914974634191e+00
5.528979787674314821e+02 4.608818294911066538e+00
5.536878330227651759e+02 4.607588181921739690e+00
5.544776872780987560e+02 4.606804037519808936e+00
5.552675415336743754e+02 4.606423615417292616e+00
5.560573957890079555e+02 4.606408324891522632e+00
5.568472500443417630e+02 4.606706361545318096e+00
5.576371042996753431e+02 4.607252890438073401e+00
5.584269585550090369e+02 4.607942393891787169e+00
5.592168128105846563e+02 4.608674487923155816e+00
5.600066670659182364e+02 4.609358073950518886e+00
5.607965213212519302e+02 4.609955224529757700e+00
5.615863755765855103e+02 4.610461705152480327e+00
5.623762298319193178e+02 4.610886305143734099e+00
5.631660840874948235e+02 4.611234073756706131e+00
5.639559383428284036e+02 4.611508646660154476e+00
5.647457925981620974e+02 4.611713350795453081e+00
5.655356468534957912e+02 4.611852618100755308e+00
5.663255011088294850e+02 4.611942384938081396e+00
5.671153553644049907e+02 4.612026077951792757e+00
5.679052096197387982e+02 4.612140579659278927e+00
5.686950638750723783e+02 4.612319216032022773e+00
5.694849181304059584e+02 4.612608169024331239e+00
5.702747723857396522e+02 4.613036687177138440e+00
5.710646266413152716e+02 4.613601193979439685e+00
5.718544808966488517e+02 4.614275602436903156e+00
5.726443351519825455e+02 4.615048461806820157e+00
5.734341894073163530e+02 4.615939560245603701e+00
5.742240436626499331e+02 4.616978486630406664e+00
5.750138979182254388e+02 4.618200060005944962e+00
5.758037521735591326e+02 4.619638129529383797e+00
5.765936064288928264e+02 4.621325180890622164e+00
5.773834606842265202e+02 4.623270800830169946e+00
5.781733149395601004e+02 4.625490539987653804e+00
5.789631691951357197e+02 4.628033437196977573e+00
5.797530234504694135e+02 4.630957786707975643e+00
5.805428777058029937e+02 4.634297032512797010e+00
5.813327319611366875e+02 4.638044718721387127e+00
5.821225862164703813e+02 4.642192004639788649e+00
5.829124404720458870e+02 4.646761784505322623e+00
5.837022947273795808e+02 4.651778438752132594e+00
5.844921489827132746e+02 4.657237452535620825e+00
5.852820032380469684e+02 4.663108023435425409e+00
5.860718574933805485e+02 4.669337985662392221e+00
5.868617117489561679e+02 4.675859488418578458e+00
5.876515660042898617e+02 4.682608260974967962e+00
5.884414202596234418e+02 4.689520176051470202e+00
5.892312745149571356e+02 4.696518784256794810e+00
5.900211287702907157e+02 4.703510424241859944e+00
5.908109830258663351e+02 4.710397996608541860e+00
5.916008372812000289e+02 4.717110841204382510e+00
5.923906915365337227e+02 4.723579570686699647e+00
5.931805457918674165e+02 4.729711797431846776e+00
5.939704000472009966e+02 4.735404176109816454e+00
5.947602543027766160e+02 4.740570767064189006e+00
5.955501085581101961e+02 4.745135937383687441e+00
5.963399628134438899e+02 4.749038078305228616e+00
5.971298170687775837e+02 4.752253340851965824e+00
5.979196713241112775e+02 4.754775818705033075e+00
5.987095255796868969e+02 4.756599410563709718e+00
5.994993798350205907e+02 4.757742391703108531e+00
6.002892340903541708e+02 4.758255037479841576e+00
6.010790883456877509e+02 4.758235781492685668e+00
6.018689426010214447e+02 4.757830813331299424e+00
6.026587968565970641e+02 4.757201659246297787e+00
6.034486511119306442e+02 4.756481236267565471e+00
6.042385053672644517e+02 4.755756832255737088e+00
6.050283596225981455e+02 4.755087680202188416e+00
6.058182138779317256e+02 4.754520712393080828e+00
6.066080681335072313e+02 4.754070592119573391e+00
6.073979223888410388e+02 4.753728215706916949e+00
6.081877766441746189e+02 4.753462465318275321e+00
6.089776308995081990e+02 4.753238851512995744e+00
6.097674851548420065e+02 4.753004759675683921e+00
6.105573394104175122e+02 4.752669637197469044e+00
6.113471936657510923e+02 4.752119853021277152e+00
6.121370479210847861e+02 4.751230506417491561e+00
6.129269021764185936e+02 4.749880493595277642e+00
6.137167564317521737e+02 4.747956385714805272e+00
6.145066106873276794e+02 4.745345417681077649e+00
6.152964649426614869e+02 4.741933176193156463e+00
6.160863191979950670e+02 4.737594970606850531e+00
6.168761734533287608e+02 4.732218451092999878e+00
6.176660277086623410e+02 4.725735882835428114e+00
6.184558819642379603e+02 4.718087968200372906e+00
6.192457362195715405e+02 4.709191989005515389e+00
6.200355904749052343e+02 4.698955688943668996e+00
6.208254447302388144e+02 4.687321697160323097e+00
6.216152989855726219e+02 4.674282778364347024e+00
6.224051532411481276e+02 4.659867985165757176e+00
6.231950074964818214e+02 4.644112422713356558e+00
6.239848617518155152e+02 4.627068578295416401e+00
6.247747160071492090e+02 4.608825319600992287e+00
6.255645702624827891e+02 4.589494337247413291e+00
6.263544245180584085e+02 4.569173474905546151e+00
6.271442787733921023e+02 4.547951841583088850e+00
6.279341330287256824e+02 4.525964874745276312e+00
6.287239872840593762e+02 4.503410713340939786e+00
6.295138415393930700e+02 4.480470613806978974e+00
6.303036957949686894e+02 4.457245419807261300e+00
6.310935500503022695e+02 4.433762197700190200e+00
6.318834043056359633e+02 4.410077638118286458e+00
6.326732585609696571e+02 4.386301513693464216e+00
6.334631128163032372e+02 4.362520054791408697e+00
6.342529670718788566e+02 4.338815747373270248e+00
6.350428213272125504e+02 4.315300236573140324e+00
6.358326755825462442e+02 4.292073789005968365e+00
6.366225298378798243e+02 4.269224351693149622e+00
6.374123840932135181e+02 4.246833420264021441e+00
6.382022383487891375e+02 4.224982881312380201e+00
6.389920926041227176e+02 4.203707979033021402e+00
6.397819468594564114e+02 4.182986740148654903e+00
6.405718011147901052e+02 4.162743838007308739e+00
6.413616553701237990e+02 4.142875644616760056e+00
6.421515096256991910e+02 4.123296331770820444e+00
6.429413638810329985e+02 4.103958570104730974e+00
6.437312181363666923e+02 4.084842599448379907e+00
6.445210723917002724e+02 4.065889303079730510e+00
6.453109266470339662e+02 4.047048281798977243e+00
6.461007809026095856e+02 4.028328429012732137e+00
6.468906351579431657e+02 4.009773214151900689e+00
6.476804894132767458e+02 3.991420477466097960e+00
6.484703436686105533e+02 3.973311600429722201e+00
6.492601979239442471e+02 3.955506552526755648e+00
6.500500521795197528e+02 3.938086750935425151e+00
6.508399064348533329e+02 3.921166084515411931e+00
6.516297606901869131e+02 3.904853248832670154e+00
6.524196149455207205e+02 3.889223495994106994e+00
6.532094692008545280e+02 3.874344316783168818e+00
6.539993234564299200e+02 3.860286615093825535e+00
6.547891777117637275e+02 3.847105759368200317e+00
6.555790319670973076e+02 3.834806779145113254e+00
6.563688862224308878e+02 3.823352327607939305e+00
6.571587404777644679e+02 3.812723361672488487e+00
6.579485947333403146e+02 3.802956557530033699e+00
6.587384489886738947e+02 3.794128524972923966e+00
6.595283032440074749e+02 3.786304958444541846e+00
6.603181574993412823e+02 3.779521663720613489e+00
6.611080117546748625e+02 3.773802871756542388e+00
6.618978660102503682e+02 3.769184725576883999e+00
6.626877202655840620e+02 3.765702469127357954e+00
6.634775745209178694e+02 3.763340158825077886e+00
6.642674287762514496e+02 3.762070989708512503e+00
6.650572830315850297e+02 3.761868430084086334e+00
6.658471372871606491e+02 3.762706634223295321e+00
6.666369915424943429e+02 3.764523042521405571e+00
6.674268457978279230e+02 3.767189238481482239e+00
6.682167000531616168e+02 3.770541308027981486e+00
6.690065543084954243e+02 3.774459210275956433e+00
6.697964085640708163e+02 3.778822953605486035e+00
6.705862628194045101e+02 3.783459268216301297e+00
6.713761170747382039e+02 3.788192368417235834e+00
6.721659713300718977e+02 3.792862767138101887e+00
6.729558255854055915e+02 3.797318098850750889e+00
6.737456798409810972e+02 3.801389224277946344e+00
6.745355340963147910e+02 3.804859364367290109e+00
6.753253883516483711e+02 3.807482958825354480e+00
6.761152426069820649e+02 3.809053132738994929e+00
6.769050968623156450e+02 3.809413887022323753e+00
6.776949511178913781e+02 3.808466134074499188e+00
6.784848053732250719e+02 3.806145138910541181e+00
6.792746596285586520e+02 3.802413502946289992e+00
6.800645138838923458e+02 3.797263792952811023e+00
6.808543681392259259e+02 3.790717660091905916e+00
6.816442223948014316e+02 3.782827217506896655e+00
6.824340766501352391e+02 3.773712190650970744e+00
6.832239309054689329e+02 3.763510720813429078e+00
6.840137851608026267e+02 3.752342069669724722e+00
6.848036394161362068e+02 3.740342773141080102e+00
6.855934936717118262e+02 3.727691933501486421e+00
6.863833479270454063e+02 3.714603478105762857e+00
6.871732021823789864e+02 3.701310243035526693e+00
6.879630564377127939e+02 3.688052579618923854e+00
6.887529106930464877e+02 3.675044570641456065e+00
6.895427649486219934e+02 3.662477431752179768e+00
6.903326192039555735e+02 3.650499356458861921e+00
6.911224734592893810e+02 3.639223808232211699e+00
6.919123277146229611e+02 3.628722208098008828e+00
6.927021819699566549e+02 3.619056155075722536e+00
6.934920362255321606e+02 3.610240842539773620e+00
6.942818904808659681e+02 3.602254615675709815e+00
6.950717447361995482e+02 3.595045562038199360e+00
6.958615989915331284e+02 3.588567485695427273e+00
6.966514532468669358e+02 3.582751487049677053e+00
6.974413075024425552e+02 3.577505985369000996e+00
6.982311617577761353e+02 3.572750360372993761e+00
6.990210160131097155e+02 3.568455966173649241e+00
6.998108702684435229e+02 3.564658502547258578e+00
7.006007245237771031e+02 3.561410268844660720e+00
7.013905787793526088e+02 3.558698162588674663e+00
7.021804330346863026e+02 3.556421865486430356e+00
